TpTrace Information: 0 : 21944, 1, 2020/10/14, 14:23:53.846, 5391953541496, testhost.dll, DefaultEngineInvoker.Invoke: Testhost process started with args :[--port, 64201],[--endpoint, 127.0.0.1:064201],[--role, client],[--parentprocessid, 22416],[--diag, C:\Users\guilherme.silva\Documents\source\repos\poc-mutation-tests\tests\PoC.Mutation.Tests.Unit.Tests\StrykerOutput\2020-10-14.14-23-39\logs\VsTest-log.host.20-10-14_14-23-53_73599_10.txt],[--tracelevel, 3],[--telemetryoptedin, false]
TpTrace Information: 0 : 21944, 1, 2020/10/14, 14:23:53.849, 5391953564624, testhost.dll, DefaultEngineInvoker.SetParentProcessExitCallback: Monitoring parent process with id: '22416'
TpTrace Information: 0 : 21944, 1, 2020/10/14, 14:23:53.856, 5391953630147, testhost.dll, DefaultEngineInvoker.GetConnectionInfo: Initialize communication on endpoint address: '127.0.0.1:064201'
TpTrace Information: 0 : 21944, 1, 2020/10/14, 14:23:53.871, 5391953780037, testhost.dll, SocketClient.Start: connecting to server endpoint: 127.0.0.1:064201
TpTrace Information: 0 : 21944, 1, 2020/10/14, 14:23:53.875, 5391953823582, testhost.dll, DefaultEngineInvoker.Invoke: Start Request Processing.
TpTrace Information: 0 : 21944, 9, 2020/10/14, 14:23:53.877, 5391953839348, testhost.dll, SocketClient.OnServerConnected: connected to server endpoint: 127.0.0.1:064201
TpTrace Information: 0 : 21944, 8, 2020/10/14, 14:23:53.878, 5391953854535, testhost.dll, DefaultEngineInvoker.StartProcessingAsync: Connected to vstest.console, Starting process requests.
TpTrace Information: 0 : 21944, 9, 2020/10/14, 14:23:53.980, 5391954870223, testhost.dll, TestRequestHandler.ProcessRequests: received message: (ProtocolVersion) -> 3
TpTrace Information: 0 : 21944, 9, 2020/10/14, 14:23:54.005, 5391955123946, testhost.dll, TestRequestHandler.ProcessRequests: received message: (TestExecution.Initialize) -> [
  "C:\\Users\\guilherme.silva\\Documents\\source\\repos\\poc-mutation-tests\\tests\\PoC.Mutation.Tests.Unit.Tests\\bin\\Debug\\netcoreapp3.1\\xunit.runner.visualstudio.dotnetcore.testadapter.dll"
]
TpTrace Information: 0 : 21944, 9, 2020/10/14, 14:23:54.005, 5391955124932, testhost.dll, Execution Session Initialize.
TpTrace Information: 0 : 21944, 9, 2020/10/14, 14:23:54.011, 5391955184799, testhost.dll, TestRequestHandler.ProcessRequests: received message: (TestExecution.StartWithSources) -> {
  "AdapterSourceMap": {
    "_none_": [
      "C:\\Users\\guilherme.silva\\Documents\\source\\repos\\poc-mutation-tests\\tests\\PoC.Mutation.Tests.Unit.Tests\\bin\\Debug\\netcoreapp3.1\\PoC.Mutation.Tests.Unit.Tests.dll"
    ]
  },
  "RunSettings": "<RunSettings>\r\n  <RunConfiguration>\r\n    <MaxCpuCount>1</MaxCpuCount>\r\n    <TargetFrameworkVersion>.NETCoreApp,Version=v3.1</TargetFrameworkVersion>\r\n    <DisableParallelization>true</DisableParallelization>\r\n    <DesignMode>false</DesignMode>\r\n    <BatchSize>1</BatchSize>\r\n    <TargetPlatform>X64</TargetPlatform>\r\n    <CollectSourceInformation>True</CollectSourceInformation>\r\n  </RunConfiguration>\r\n  <InProcDataCollectionRunSettings>\r\n    <InProcDataCollectors>\r\n      <InProcDataCollector friendlyName=\"StrykerCoverage\" uri=\"https://stryker-mutator.io/\" codebase=\"C:\\Users\\guilherme.silva\\.dotnet\\tools\\.store\\dotnet-stryker\\0.19.0\\dotnet-stryker\\0.19.0\\tools\\netcoreapp3.1\\any\\Stryker.DataCollector.dll\" assemblyQualifiedName=\"Stryker.DataCollector.CoverageCollector, Stryker.DataCollector, Version=0.16.1.0, Culture=neutral, PublicKeyToken=null\">\r\n        <Configuration>\r\n          <Parameters>\r\n            <Coverage />\r\n            <MutantControl name=\"StrykerqbPbi9p8YfYGsjQ.MutantControl\" />\r\n          </Parameters>\r\n        </Configuration>\r\n      </InProcDataCollector>\r\n    </InProcDataCollectors>\r\n  </InProcDataCollectionRunSettings>\r\n  <LoggerRunSettings>\r\n    <Loggers>\r\n      <Logger friendlyName=\"Console\" uri=\"logger://microsoft/TestPlatform/ConsoleLogger/v1\" assemblyQualifiedName=\"Microsoft.VisualStudio.TestPlatform.CommandLine.Internal.ConsoleLogger, vstest.console, Version=15.0.0.0, Culture=neutral, PublicKeyToken=b03f5f7f11d50a3a\" codeBase=\"C:\\Users\\guilherme.silva\\AppData\\Local\\Temp\\xyi1ev3q.41r\\.vstest\\tools\\net451\\vstest.console.exe\" enabled=\"True\" />\r\n    </Loggers>\r\n  </LoggerRunSettings>\r\n</RunSettings>",
  "TestExecutionContext": {
    "FrequencyOfRunStatsChangeEvent": 1,
    "RunStatsChangeEventTimeout": "00:00:01.5000000",
    "InIsolation": false,
    "KeepAlive": false,
    "AreTestCaseLevelEventsRequired": false,
    "IsDebug": false,
    "TestCaseFilter": null,
    "FilterOptions": null
  },
  "Package": null
}
TpTrace Information: 0 : 21944, 9, 2020/10/14, 14:23:54.012, 5391955186403, testhost.dll, Execution started.
TpTrace Information: 0 : 21944, 4, 2020/10/14, 14:23:54.016, 5391955232183, testhost.dll, AssemblyResolver.ctor: Creating AssemblyResolver with searchDirectories C:\Users\guilherme.silva\Documents\source\repos\poc-mutation-tests\tests\PoC.Mutation.Tests.Unit.Tests\bin\Debug\netcoreapp3.1
TpTrace Information: 0 : 21944, 4, 2020/10/14, 14:23:54.018, 5391955254809, testhost.dll, AssemblyResolver.AddSearchDirectories: Adding more searchDirectories C:\Users\guilherme.silva\Documents\source\repos\poc-mutation-tests\tests\PoC.Mutation.Tests.Unit.Tests\bin\Debug\netcoreapp3.1
TpTrace Information: 0 : 21944, 4, 2020/10/14, 14:23:54.022, 5391955289340, testhost.dll, AssemblyResolver.OnResolve: xunit.runner.visualstudio.dotnetcore.testadapter: Resolving assembly.
TpTrace Information: 0 : 21944, 4, 2020/10/14, 14:23:54.023, 5391955303304, testhost.dll, AssemblyResolver.OnResolve: Resolved assembly: xunit.runner.visualstudio.dotnetcore.testadapter, from path: C:\Users\guilherme.silva\Documents\source\repos\poc-mutation-tests\tests\PoC.Mutation.Tests.Unit.Tests\bin\Debug\netcoreapp3.1\xunit.runner.visualstudio.dotnetcore.testadapter.dll
TpTrace Information: 0 : 21944, 4, 2020/10/14, 14:23:54.025, 5391955324823, testhost.dll, AssemblyResolver.OnResolve: xunit.runner.utility.netcoreapp10: Resolving assembly.
TpTrace Information: 0 : 21944, 4, 2020/10/14, 14:23:54.026, 5391955330840, testhost.dll, AssemblyResolver.OnResolve: Resolved assembly: xunit.runner.utility.netcoreapp10, from path: C:\Users\guilherme.silva\Documents\source\repos\poc-mutation-tests\tests\PoC.Mutation.Tests.Unit.Tests\bin\Debug\netcoreapp3.1\xunit.runner.utility.netcoreapp10.dll
TpTrace Information: 0 : 21944, 4, 2020/10/14, 14:23:54.035, 5391955415528, testhost.dll, TestPluginManager.CreateTestExtension: Attempting to load test extension: Xunit.Runner.VisualStudio.VsTestRunner
TpTrace Information: 0 : 21944, 4, 2020/10/14, 14:23:54.036, 5391955425993, testhost.dll, AssemblyResolver.AddSearchDirectories: Adding more searchDirectories C:\Users\guilherme.silva\Documents\source\repos\poc-mutation-tests\tests\PoC.Mutation.Tests.Unit.Tests\bin\Debug\netcoreapp3.1
TpTrace Information: 0 : 21944, 4, 2020/10/14, 14:23:54.036, 5391955426717, testhost.dll, AssemblyResolver.AddSearchDirectories: Adding more searchDirectories C:\Users\guilherme.silva\Documents\source\repos\poc-mutation-tests\tests\PoC.Mutation.Tests.Unit.Tests\bin\Debug\netcoreapp3.1
TpTrace Information: 0 : 21944, 4, 2020/10/14, 14:23:54.036, 5391955434944, testhost.dll, TestExecutorService: Loaded the extensions
TpTrace Information: 0 : 21944, 4, 2020/10/14, 14:23:54.127, 5391956343888, testhost.dll, TestDiscoveryManager: Discovering tests from sources C:\Users\guilherme.silva\Documents\source\repos\poc-mutation-tests\tests\PoC.Mutation.Tests.Unit.Tests\bin\Debug\netcoreapp3.1\PoC.Mutation.Tests.Unit.Tests.dll
TpTrace Information: 0 : 21944, 4, 2020/10/14, 14:23:54.129, 5391956363925, testhost.dll, AssemblyResolver.AddSearchDirectories: Adding more searchDirectories C:\Users\guilherme.silva\Documents\source\repos\poc-mutation-tests\tests\PoC.Mutation.Tests.Unit.Tests\bin\Debug\netcoreapp3.1
TpTrace Information: 0 : 21944, 4, 2020/10/14, 14:23:54.129, 5391956365096, testhost.dll, AssemblyResolver.AddSearchDirectories: Adding more searchDirectories C:\Users\guilherme.silva\Documents\source\repos\poc-mutation-tests\tests\PoC.Mutation.Tests.Unit.Tests\bin\Debug\netcoreapp3.1
TpTrace Information: 0 : 21944, 4, 2020/10/14, 14:23:54.132, 5391956388256, testhost.dll, AssemblyResolver.OnResolve: System.ComponentModel.Primitives.resources: Resolving assembly.
TpTrace Information: 0 : 21944, 4, 2020/10/14, 14:23:54.132, 5391956389923, testhost.dll, AssemblyResolver.OnResolve: System.ComponentModel.Primitives.resources: Failed to load assembly.
TpTrace Information: 0 : 21944, 4, 2020/10/14, 14:23:54.132, 5391956393169, testhost.dll, AssemblyResolver.OnResolve: System.ComponentModel.Primitives.resources: Resolving assembly.
TpTrace Information: 0 : 21944, 4, 2020/10/14, 14:23:54.132, 5391956393673, testhost.dll, AssemblyResolver.OnResolve: System.ComponentModel.Primitives.resources: Resolved from cache.
TpTrace Information: 0 : 21944, 4, 2020/10/14, 14:23:54.133, 5391956403458, testhost.dll, AssemblyResolver.OnResolve: System.ComponentModel.Primitives.resources: Resolving assembly.
TpTrace Information: 0 : 21944, 4, 2020/10/14, 14:23:54.133, 5391956404108, testhost.dll, AssemblyResolver.OnResolve: System.ComponentModel.Primitives.resources: Resolved from cache.
TpTrace Information: 0 : 21944, 4, 2020/10/14, 14:23:54.155, 5391956617113, testhost.dll, PEReaderHelper.GetAssemblyType: Determined assemblyType:'Managed' for source: 'C:\Users\guilherme.silva\Documents\source\repos\poc-mutation-tests\tests\PoC.Mutation.Tests.Unit.Tests\bin\Debug\netcoreapp3.1\PoC.Mutation.Tests.Unit.Tests.dll'
TpTrace Information: 0 : 21944, 4, 2020/10/14, 14:23:54.164, 5391956713688, testhost.dll, [xUnit.net 00:00:00.00] xUnit.net VSTest Adapter v2.4.0 (64-bit .NET Core 3.1.8)
TpTrace Information: 0 : 21944, 4, 2020/10/14, 14:23:54.412, 5391959191366, testhost.dll, AssemblyResolver.OnResolve: xunit.runner.reporters.netcoreapp10: Resolving assembly.
TpTrace Information: 0 : 21944, 4, 2020/10/14, 14:23:54.413, 5391959196666, testhost.dll, AssemblyResolver.OnResolve: Resolved assembly: xunit.runner.reporters.netcoreapp10, from path: C:\Users\guilherme.silva\Documents\source\repos\poc-mutation-tests\tests\PoC.Mutation.Tests.Unit.Tests\bin\Debug\netcoreapp3.1\xunit.runner.reporters.netcoreapp10.dll
TpTrace Information: 0 : 21944, 4, 2020/10/14, 14:23:54.458, 5391959646994, testhost.dll, [xUnit.net 00:00:00.29]   Discovering: PoC.Mutation.Tests.Unit.Tests
TpTrace Information: 0 : 21944, 4, 2020/10/14, 14:23:54.503, 5391960098611, testhost.dll, [xUnit.net 00:00:00.34]   Discovered:  PoC.Mutation.Tests.Unit.Tests
TpTrace Information: 0 : 21944, 4, 2020/10/14, 14:23:54.505, 5391960119962, testhost.dll, [xUnit.net 00:00:00.34]   Starting:    PoC.Mutation.Tests.Unit.Tests
TpTrace Information: 0 : 21944, 4, 2020/10/14, 14:23:54.538, 5391960449705, testhost.dll, Sending test run statistics
TpTrace Warning: 0 : 21944, 4, 2020/10/14, 14:23:54.578, 5391960849928, testhost.dll, InProgressTests is null
TpTrace Warning: 0 : 21944, 4, 2020/10/14, 14:23:54.580, 5391960867884, testhost.dll, TestRunCache: No test found corresponding to testResult 'PoC.Mutation.Tests.Unit.Tests.UnitTest1.Calculate_WhenPercentOfDiscountIsLessOrEqualZero_ShoudNotCalculateADiscount(amount: 2155,21, percent: 0)  Aprovado' in inProgress list.
TpTrace Information: 0 : 21944, 4, 2020/10/14, 14:23:54.580, 5391960868490, testhost.dll, Sending test run statistics
TpTrace Warning: 0 : 21944, 4, 2020/10/14, 14:23:54.592, 5391960991973, testhost.dll, InProgressTests is null
TpTrace Information: 0 : 21944, 4, 2020/10/14, 14:23:54.592, 5391960994210, testhost.dll, Sending test run statistics
TpTrace Warning: 0 : 21944, 4, 2020/10/14, 14:23:54.593, 5391960998849, testhost.dll, InProgressTests is null
TpTrace Warning: 0 : 21944, 4, 2020/10/14, 14:23:54.593, 5391960999353, testhost.dll, TestRunCache: No test found corresponding to testResult 'PoC.Mutation.Tests.Unit.Tests.UnitTest1.Calculate_WhenPercentOfDiscountIsLessOrEqualZero_ShoudNotCalculateADiscount(amount: 1500, percent: -1)  Aprovado' in inProgress list.
TpTrace Information: 0 : 21944, 4, 2020/10/14, 14:23:54.593, 5391960999728, testhost.dll, Sending test run statistics
TpTrace Warning: 0 : 21944, 4, 2020/10/14, 14:23:54.593, 5391961001977, testhost.dll, InProgressTests is null
TpTrace Information: 0 : 21944, 4, 2020/10/14, 14:23:54.593, 5391961004292, testhost.dll, Sending test run statistics
TpTrace Warning: 0 : 21944, 4, 2020/10/14, 14:23:54.595, 5391961022961, testhost.dll, InProgressTests is null
TpTrace Warning: 0 : 21944, 4, 2020/10/14, 14:23:54.595, 5391961023501, testhost.dll, TestRunCache: No test found corresponding to testResult 'PoC.Mutation.Tests.Unit.Tests.UnitTest1.Calculate_ShouldCalculateADiscount(amount: 1, percent: 1, expectedAmount: 0)  Aprovado' in inProgress list.
TpTrace Information: 0 : 21944, 4, 2020/10/14, 14:23:54.595, 5391961023779, testhost.dll, Sending test run statistics
TpTrace Warning: 0 : 21944, 4, 2020/10/14, 14:23:54.596, 5391961025860, testhost.dll, InProgressTests is null
TpTrace Information: 0 : 21944, 4, 2020/10/14, 14:23:54.596, 5391961026349, testhost.dll, Sending test run statistics
TpTrace Warning: 0 : 21944, 4, 2020/10/14, 14:23:54.596, 5391961028458, testhost.dll, InProgressTests is null
TpTrace Warning: 0 : 21944, 4, 2020/10/14, 14:23:54.596, 5391961028858, testhost.dll, TestRunCache: No test found corresponding to testResult 'PoC.Mutation.Tests.Unit.Tests.UnitTest1.Calculate_ShouldCalculateADiscount(amount: 1533,45, percent: 0,2, expectedAmount: 1226,76)  Aprovado' in inProgress list.
TpTrace Information: 0 : 21944, 4, 2020/10/14, 14:23:54.596, 5391961029138, testhost.dll, Sending test run statistics
TpTrace Warning: 0 : 21944, 4, 2020/10/14, 14:23:54.596, 5391961030563, testhost.dll, InProgressTests is null
TpTrace Information: 0 : 21944, 4, 2020/10/14, 14:23:54.596, 5391961031309, testhost.dll, Sending test run statistics
TpTrace Warning: 0 : 21944, 4, 2020/10/14, 14:23:54.597, 5391961036594, testhost.dll, InProgressTests is null
TpTrace Warning: 0 : 21944, 4, 2020/10/14, 14:23:54.597, 5391961037077, testhost.dll, TestRunCache: No test found corresponding to testResult 'PoC.Mutation.Tests.Unit.Tests.UnitTest1.Calculate_WhenAmountIsLessOrEqualZero_ShoudNotCalculateADiscount(amount: -1, percent: 1)  Aprovado' in inProgress list.
TpTrace Information: 0 : 21944, 4, 2020/10/14, 14:23:54.597, 5391961037351, testhost.dll, Sending test run statistics
TpTrace Warning: 0 : 21944, 4, 2020/10/14, 14:23:54.597, 5391961039114, testhost.dll, InProgressTests is null
TpTrace Information: 0 : 21944, 4, 2020/10/14, 14:23:54.597, 5391961039832, testhost.dll, Sending test run statistics
TpTrace Warning: 0 : 21944, 4, 2020/10/14, 14:23:54.597, 5391961042442, testhost.dll, InProgressTests is null
TpTrace Warning: 0 : 21944, 4, 2020/10/14, 14:23:54.597, 5391961042950, testhost.dll, TestRunCache: No test found corresponding to testResult 'PoC.Mutation.Tests.Unit.Tests.UnitTest1.Calculate_WhenAmountIsLessOrEqualZero_ShoudNotCalculateADiscount(amount: 0, percent: 0,2)  Aprovado' in inProgress list.
TpTrace Information: 0 : 21944, 4, 2020/10/14, 14:23:54.597, 5391961043235, testhost.dll, Sending test run statistics
TpTrace Warning: 0 : 21944, 4, 2020/10/14, 14:23:54.597, 5391961044748, testhost.dll, InProgressTests is null
TpTrace Information: 0 : 21944, 4, 2020/10/14, 14:23:54.602, 5391961087229, testhost.dll, [xUnit.net 00:00:00.44]   Finished:    PoC.Mutation.Tests.Unit.Tests
TpTrace Information: 0 : 21944, 4, 2020/10/14, 14:23:54.607, 5391961138987, testhost.dll, Sending test run complete
TpTrace Information: 0 : 21944, 9, 2020/10/14, 14:23:54.613, 5391961203039, testhost.dll, TestRequestHandler.ProcessRequests: received message: (TestSession.Terminate) -> null
TpTrace Information: 0 : 21944, 9, 2020/10/14, 14:23:54.613, 5391961203667, testhost.dll, Session End message received from server. Closing the connection.
TpTrace Information: 0 : 21944, 9, 2020/10/14, 14:23:54.614, 5391961205668, testhost.dll, SocketClient.Stop: Stop communication from server endpoint: 127.0.0.1:064201
TpTrace Information: 0 : 21944, 9, 2020/10/14, 14:23:54.614, 5391961206165, testhost.dll, SocketClient: Stop: Cancellation requested. Stopping message loop.
TpTrace Information: 0 : 21944, 1, 2020/10/14, 14:23:54.614, 5391961206182, testhost.dll, SocketClient.Stop: Stop communication from server endpoint: 127.0.0.1:064201
TpTrace Information: 0 : 21944, 9, 2020/10/14, 14:23:54.614, 5391961207778, testhost.dll, Closing the connection !
TpTrace Information: 0 : 21944, 1, 2020/10/14, 14:23:54.614, 5391961208495, testhost.dll, SocketClient: Stop: Cancellation requested. Stopping message loop.
TpTrace Information: 0 : 21944, 9, 2020/10/14, 14:23:54.614, 5391961209220, testhost.dll, SocketClient.PrivateStop: Stop communication from server endpoint: 127.0.0.1:064201, error:
TpTrace Information: 0 : 21944, 1, 2020/10/14, 14:23:54.614, 5391961209387, testhost.dll, Testhost process exiting.
