TpTrace Information: 0 : 23664, 1, 2020/10/14, 14:23:48.739, 5391902468085, testhost.dll, DefaultEngineInvoker.Invoke: Testhost process started with args :[--port, 64191],[--endpoint, 127.0.0.1:064191],[--role, client],[--parentprocessid, 18208],[--diag, C:\Users\guilherme.silva\Documents\source\repos\poc-mutation-tests\tests\PoC.Mutation.Tests.Unit.Tests\StrykerOutput\2020-10-14.14-23-39\logs\VsTest-log.host.20-10-14_14-23-48_50768_9.txt],[--tracelevel, 3],[--telemetryoptedin, false]
TpTrace Information: 0 : 23664, 1, 2020/10/14, 14:23:48.742, 5391902490330, testhost.dll, DefaultEngineInvoker.SetParentProcessExitCallback: Monitoring parent process with id: '18208'
TpTrace Information: 0 : 23664, 1, 2020/10/14, 14:23:48.749, 5391902563750, testhost.dll, DefaultEngineInvoker.GetConnectionInfo: Initialize communication on endpoint address: '127.0.0.1:064191'
TpTrace Information: 0 : 23664, 1, 2020/10/14, 14:23:48.763, 5391902695309, testhost.dll, SocketClient.Start: connecting to server endpoint: 127.0.0.1:064191
TpTrace Information: 0 : 23664, 1, 2020/10/14, 14:23:48.766, 5391902733794, testhost.dll, DefaultEngineInvoker.Invoke: Start Request Processing.
TpTrace Information: 0 : 23664, 5, 2020/10/14, 14:23:48.768, 5391902749962, testhost.dll, SocketClient.OnServerConnected: connected to server endpoint: 127.0.0.1:064191
TpTrace Information: 0 : 23664, 9, 2020/10/14, 14:23:48.770, 5391902766128, testhost.dll, DefaultEngineInvoker.StartProcessingAsync: Connected to vstest.console, Starting process requests.
TpTrace Information: 0 : 23664, 5, 2020/10/14, 14:23:48.873, 5391903803399, testhost.dll, TestRequestHandler.ProcessRequests: received message: (ProtocolVersion) -> 3
TpTrace Information: 0 : 23664, 5, 2020/10/14, 14:23:48.904, 5391904112403, testhost.dll, TestRequestHandler.ProcessRequests: received message: (TestDiscovery.Initialize) -> [
  "C:\\Users\\guilherme.silva\\Documents\\source\\repos\\poc-mutation-tests\\tests\\PoC.Mutation.Tests.Unit.Tests\\bin\\Debug\\netcoreapp3.1\\xunit.runner.visualstudio.dotnetcore.testadapter.dll"
]
TpTrace Information: 0 : 23664, 5, 2020/10/14, 14:23:48.904, 5391904113622, testhost.dll, Discovery Session Initialize.
TpTrace Information: 0 : 23664, 5, 2020/10/14, 14:23:48.911, 5391904175510, testhost.dll, TestRequestHandler.ProcessRequests: received message: (TestDiscovery.Start) -> {
  "Package": null,
  "AdapterSourceMap": {
    "_none_": [
      "C:\\Users\\guilherme.silva\\Documents\\source\\repos\\poc-mutation-tests\\tests\\PoC.Mutation.Tests.Unit.Tests\\bin\\Debug\\netcoreapp3.1\\PoC.Mutation.Tests.Unit.Tests.dll"
    ]
  },
  "FrequencyOfDiscoveredTestsEvent": 1,
  "DiscoveredTestEventTimeout": "00:00:01.5000000",
  "RunSettings": "<RunSettings>\r\n  <RunConfiguration>\r\n    <MaxCpuCount>1</MaxCpuCount>\r\n    <TargetFrameworkVersion>.NETCoreApp,Version=v3.1</TargetFrameworkVersion>\r\n    <DesignMode>false</DesignMode>\r\n    <BatchSize>1</BatchSize>\r\n    <TargetPlatform>X64</TargetPlatform>\r\n    <CollectSourceInformation>True</CollectSourceInformation>\r\n  </RunConfiguration>\r\n  <LoggerRunSettings>\r\n    <Loggers>\r\n      <Logger friendlyName=\"Console\" uri=\"logger://microsoft/TestPlatform/ConsoleLogger/v1\" assemblyQualifiedName=\"Microsoft.VisualStudio.TestPlatform.CommandLine.Internal.ConsoleLogger, vstest.console, Version=15.0.0.0, Culture=neutral, PublicKeyToken=b03f5f7f11d50a3a\" codeBase=\"C:\\Users\\guilherme.silva\\AppData\\Local\\Temp\\xyi1ev3q.41r\\.vstest\\tools\\net451\\vstest.console.exe\" enabled=\"True\" />\r\n    </Loggers>\r\n  </LoggerRunSettings>\r\n</RunSettings>",
  "TestCaseFilter": null
}
TpTrace Information: 0 : 23664, 5, 2020/10/14, 14:23:48.911, 5391904176548, testhost.dll, Discovery started.
TpTrace Information: 0 : 23664, 4, 2020/10/14, 14:23:48.915, 5391904224513, testhost.dll, AssemblyResolver.ctor: Creating AssemblyResolver with searchDirectories C:\Users\guilherme.silva\Documents\source\repos\poc-mutation-tests\tests\PoC.Mutation.Tests.Unit.Tests\bin\Debug\netcoreapp3.1
TpTrace Information: 0 : 23664, 4, 2020/10/14, 14:23:48.918, 5391904246085, testhost.dll, AssemblyResolver.AddSearchDirectories: Adding more searchDirectories C:\Users\guilherme.silva\Documents\source\repos\poc-mutation-tests\tests\PoC.Mutation.Tests.Unit.Tests\bin\Debug\netcoreapp3.1
TpTrace Information: 0 : 23664, 4, 2020/10/14, 14:23:48.921, 5391904282415, testhost.dll, AssemblyResolver.OnResolve: xunit.runner.visualstudio.dotnetcore.testadapter: Resolving assembly.
TpTrace Information: 0 : 23664, 4, 2020/10/14, 14:23:48.928, 5391904351171, testhost.dll, AssemblyResolver.OnResolve: Resolved assembly: xunit.runner.visualstudio.dotnetcore.testadapter, from path: C:\Users\guilherme.silva\Documents\source\repos\poc-mutation-tests\tests\PoC.Mutation.Tests.Unit.Tests\bin\Debug\netcoreapp3.1\xunit.runner.visualstudio.dotnetcore.testadapter.dll
TpTrace Information: 0 : 23664, 4, 2020/10/14, 14:23:48.935, 5391904422583, testhost.dll, AssemblyResolver.OnResolve: xunit.runner.utility.netcoreapp10: Resolving assembly.
TpTrace Information: 0 : 23664, 4, 2020/10/14, 14:23:48.943, 5391904496777, testhost.dll, AssemblyResolver.OnResolve: Resolved assembly: xunit.runner.utility.netcoreapp10, from path: C:\Users\guilherme.silva\Documents\source\repos\poc-mutation-tests\tests\PoC.Mutation.Tests.Unit.Tests\bin\Debug\netcoreapp3.1\xunit.runner.utility.netcoreapp10.dll
TpTrace Information: 0 : 23664, 4, 2020/10/14, 14:23:48.946, 5391904532533, testhost.dll, AssemblyResolver.OnResolve: System.ComponentModel.Primitives.resources: Resolving assembly.
TpTrace Information: 0 : 23664, 4, 2020/10/14, 14:23:48.946, 5391904534352, testhost.dll, AssemblyResolver.OnResolve: System.ComponentModel.Primitives.resources: Failed to load assembly.
TpTrace Information: 0 : 23664, 4, 2020/10/14, 14:23:48.947, 5391904537186, testhost.dll, AssemblyResolver.OnResolve: System.ComponentModel.Primitives.resources: Resolving assembly.
TpTrace Information: 0 : 23664, 4, 2020/10/14, 14:23:48.947, 5391904537684, testhost.dll, AssemblyResolver.OnResolve: System.ComponentModel.Primitives.resources: Resolved from cache.
TpTrace Information: 0 : 23664, 4, 2020/10/14, 14:23:48.948, 5391904548568, testhost.dll, AssemblyResolver.OnResolve: System.ComponentModel.Primitives.resources: Resolving assembly.
TpTrace Information: 0 : 23664, 4, 2020/10/14, 14:23:48.948, 5391904549002, testhost.dll, AssemblyResolver.OnResolve: System.ComponentModel.Primitives.resources: Resolved from cache.
TpTrace Information: 0 : 23664, 4, 2020/10/14, 14:23:48.954, 5391904607090, testhost.dll, TestPluginManager.CreateTestExtension: Attempting to load test extension: Xunit.Runner.VisualStudio.VsTestRunner
TpTrace Information: 0 : 23664, 4, 2020/10/14, 14:23:48.955, 5391904621932, testhost.dll, TestDiscoveryManager.DoDiscovery: Background test discovery started.
TpTrace Information: 0 : 23664, 4, 2020/10/14, 14:23:48.956, 5391904633640, testhost.dll, TestDiscoveryManager: Discovering tests from sources C:\Users\guilherme.silva\Documents\source\repos\poc-mutation-tests\tests\PoC.Mutation.Tests.Unit.Tests\bin\Debug\netcoreapp3.1\PoC.Mutation.Tests.Unit.Tests.dll
TpTrace Information: 0 : 23664, 4, 2020/10/14, 14:23:48.964, 5391904705285, testhost.dll, AssemblyResolver.AddSearchDirectories: Adding more searchDirectories C:\Users\guilherme.silva\Documents\source\repos\poc-mutation-tests\tests\PoC.Mutation.Tests.Unit.Tests\bin\Debug\netcoreapp3.1
TpTrace Information: 0 : 23664, 4, 2020/10/14, 14:23:48.964, 5391904706252, testhost.dll, AssemblyResolver.AddSearchDirectories: Adding more searchDirectories C:\Users\guilherme.silva\Documents\source\repos\poc-mutation-tests\tests\PoC.Mutation.Tests.Unit.Tests\bin\Debug\netcoreapp3.1
TpTrace Information: 0 : 23664, 4, 2020/10/14, 14:23:48.979, 5391904857999, testhost.dll, PEReaderHelper.GetAssemblyType: Determined assemblyType:'Managed' for source: 'C:\Users\guilherme.silva\Documents\source\repos\poc-mutation-tests\tests\PoC.Mutation.Tests.Unit.Tests\bin\Debug\netcoreapp3.1\PoC.Mutation.Tests.Unit.Tests.dll'
TpTrace Information: 0 : 23664, 4, 2020/10/14, 14:23:48.985, 5391904920528, testhost.dll, TestDiscoveryManager.RunMessage: calling TestRunMessage(Informational, [xUnit.net 00:00:00.00] xUnit.net VSTest Adapter v2.4.0 (64-bit .NET Core 3.1.8)) callback.
TpTrace Information: 0 : 23664, 4, 2020/10/14, 14:23:48.985, 5391904922155, testhost.dll, [xUnit.net 00:00:00.00] xUnit.net VSTest Adapter v2.4.0 (64-bit .NET Core 3.1.8)
TpTrace Information: 0 : 23664, 4, 2020/10/14, 14:23:49.321, 5391908277407, testhost.dll, AssemblyResolver.OnResolve: xunit.runner.reporters.netcoreapp10: Resolving assembly.
TpTrace Information: 0 : 23664, 4, 2020/10/14, 14:23:49.327, 5391908335696, testhost.dll, AssemblyResolver.OnResolve: Resolved assembly: xunit.runner.reporters.netcoreapp10, from path: C:\Users\guilherme.silva\Documents\source\repos\poc-mutation-tests\tests\PoC.Mutation.Tests.Unit.Tests\bin\Debug\netcoreapp3.1\xunit.runner.reporters.netcoreapp10.dll
TpTrace Information: 0 : 23664, 4, 2020/10/14, 14:23:49.359, 5391908656819, testhost.dll, TestDiscoveryManager.RunMessage: calling TestRunMessage(Informational, [xUnit.net 00:00:00.37]   Discovering: PoC.Mutation.Tests.Unit.Tests) callback.
TpTrace Information: 0 : 23664, 4, 2020/10/14, 14:23:49.359, 5391908657667, testhost.dll, [xUnit.net 00:00:00.37]   Discovering: PoC.Mutation.Tests.Unit.Tests
TpTrace Information: 0 : 23664, 12, 2020/10/14, 14:23:49.410, 5391909173981, testhost.dll, Test Cases found 
TpTrace Information: 0 : 23664, 12, 2020/10/14, 14:23:49.430, 5391909369448, testhost.dll, Test Cases found 
TpTrace Information: 0 : 23664, 12, 2020/10/14, 14:23:49.430, 5391909372005, testhost.dll, Test Cases found 
TpTrace Information: 0 : 23664, 12, 2020/10/14, 14:23:49.430, 5391909373442, testhost.dll, Test Cases found 
TpTrace Information: 0 : 23664, 12, 2020/10/14, 14:23:49.430, 5391909374791, testhost.dll, Test Cases found 
TpTrace Information: 0 : 23664, 12, 2020/10/14, 14:23:49.431, 5391909376282, testhost.dll, Test Cases found 
TpTrace Information: 0 : 23664, 4, 2020/10/14, 14:23:49.432, 5391909386347, testhost.dll, TestDiscoveryManager.RunMessage: calling TestRunMessage(Informational, [xUnit.net 00:00:00.44]   Discovered:  PoC.Mutation.Tests.Unit.Tests) callback.
TpTrace Information: 0 : 23664, 4, 2020/10/14, 14:23:49.432, 5391909387205, testhost.dll, [xUnit.net 00:00:00.44]   Discovered:  PoC.Mutation.Tests.Unit.Tests
TpTrace Information: 0 : 23664, 4, 2020/10/14, 14:23:49.437, 5391909443533, testhost.dll, Discover Finished.
TpTrace Information: 0 : 23664, 5, 2020/10/14, 14:23:49.450, 5391909569053, testhost.dll, TestRequestHandler.ProcessRequests: received message: (TestSession.Terminate) -> null
TpTrace Information: 0 : 23664, 5, 2020/10/14, 14:23:49.450, 5391909569774, testhost.dll, Session End message received from server. Closing the connection.
TpTrace Information: 0 : 23664, 5, 2020/10/14, 14:23:49.450, 5391909571864, testhost.dll, SocketClient.Stop: Stop communication from server endpoint: 127.0.0.1:064191
TpTrace Information: 0 : 23664, 5, 2020/10/14, 14:23:49.450, 5391909572295, testhost.dll, SocketClient: Stop: Cancellation requested. Stopping message loop.
TpTrace Information: 0 : 23664, 1, 2020/10/14, 14:23:49.450, 5391909571964, testhost.dll, SocketClient.Stop: Stop communication from server endpoint: 127.0.0.1:064191
TpTrace Information: 0 : 23664, 1, 2020/10/14, 14:23:49.450, 5391909573038, testhost.dll, SocketClient: Stop: Cancellation requested. Stopping message loop.
TpTrace Information: 0 : 23664, 5, 2020/10/14, 14:23:49.450, 5391909574171, testhost.dll, Closing the connection !
TpTrace Information: 0 : 23664, 1, 2020/10/14, 14:23:49.450, 5391909574454, testhost.dll, Testhost process exiting.
TpTrace Information: 0 : 23664, 5, 2020/10/14, 14:23:49.451, 5391909575785, testhost.dll, SocketClient.PrivateStop: Stop communication from server endpoint: 127.0.0.1:064191, error:
