TpTrace Information: 0 : 20568, 1, 2020/10/14, 14:26:20.279, 5393417872714, testhost.dll, DefaultEngineInvoker.Invoke: Testhost process started with args :[--port, 64248],[--endpoint, 127.0.0.1:064248],[--role, client],[--parentprocessid, 8884],[--diag, C:\Users\guilherme.silva\Documents\source\repos\poc-mutation-tests\tests\PoC.Mutation.Tests.Unit.Tests\StrykerOutput\2020-10-14.14-26-10\logs\VsTest-log.host.20-10-14_14-26-20_05473_7.txt],[--tracelevel, 3],[--telemetryoptedin, false]
TpTrace Information: 0 : 20568, 1, 2020/10/14, 14:26:20.282, 5393417894542, testhost.dll, DefaultEngineInvoker.SetParentProcessExitCallback: Monitoring parent process with id: '8884'
TpTrace Information: 0 : 20568, 1, 2020/10/14, 14:26:20.292, 5393417993353, testhost.dll, DefaultEngineInvoker.GetConnectionInfo: Initialize communication on endpoint address: '127.0.0.1:064248'
TpTrace Information: 0 : 20568, 1, 2020/10/14, 14:26:20.305, 5393418117499, testhost.dll, SocketClient.Start: connecting to server endpoint: 127.0.0.1:064248
TpTrace Information: 0 : 20568, 1, 2020/10/14, 14:26:20.309, 5393418156330, testhost.dll, DefaultEngineInvoker.Invoke: Start Request Processing.
TpTrace Information: 0 : 20568, 5, 2020/10/14, 14:26:20.310, 5393418170480, testhost.dll, SocketClient.OnServerConnected: connected to server endpoint: 127.0.0.1:064248
TpTrace Information: 0 : 20568, 9, 2020/10/14, 14:26:20.311, 5393418185489, testhost.dll, DefaultEngineInvoker.StartProcessingAsync: Connected to vstest.console, Starting process requests.
TpTrace Information: 0 : 20568, 5, 2020/10/14, 14:26:20.408, 5393419150724, testhost.dll, TestRequestHandler.ProcessRequests: received message: (ProtocolVersion) -> 3
TpTrace Information: 0 : 20568, 5, 2020/10/14, 14:26:20.441, 5393419484163, testhost.dll, TestRequestHandler.ProcessRequests: received message: (TestDiscovery.Initialize) -> [
  "C:\\Users\\guilherme.silva\\Documents\\source\\repos\\poc-mutation-tests\\tests\\PoC.Mutation.Tests.Unit.Tests\\bin\\Debug\\netcoreapp3.1\\xunit.runner.visualstudio.dotnetcore.testadapter.dll"
]
TpTrace Information: 0 : 20568, 5, 2020/10/14, 14:26:20.441, 5393419485293, testhost.dll, Discovery Session Initialize.
TpTrace Information: 0 : 20568, 5, 2020/10/14, 14:26:20.448, 5393419549760, testhost.dll, TestRequestHandler.ProcessRequests: received message: (TestDiscovery.Start) -> {
  "Package": null,
  "AdapterSourceMap": {
    "_none_": [
      "C:\\Users\\guilherme.silva\\Documents\\source\\repos\\poc-mutation-tests\\tests\\PoC.Mutation.Tests.Unit.Tests\\bin\\Debug\\netcoreapp3.1\\PoC.Mutation.Tests.Unit.Tests.dll"
    ]
  },
  "FrequencyOfDiscoveredTestsEvent": 1,
  "DiscoveredTestEventTimeout": "00:00:01.5000000",
  "RunSettings": "<RunSettings>\r\n  <RunConfiguration>\r\n    <MaxCpuCount>1</MaxCpuCount>\r\n    <TargetFrameworkVersion>.NETCoreApp,Version=v3.1</TargetFrameworkVersion>\r\n    <DesignMode>false</DesignMode>\r\n    <BatchSize>1</BatchSize>\r\n    <TargetPlatform>X64</TargetPlatform>\r\n    <CollectSourceInformation>True</CollectSourceInformation>\r\n  </RunConfiguration>\r\n  <LoggerRunSettings>\r\n    <Loggers>\r\n      <Logger friendlyName=\"Console\" uri=\"logger://microsoft/TestPlatform/ConsoleLogger/v1\" assemblyQualifiedName=\"Microsoft.VisualStudio.TestPlatform.CommandLine.Internal.ConsoleLogger, vstest.console, Version=15.0.0.0, Culture=neutral, PublicKeyToken=b03f5f7f11d50a3a\" codeBase=\"C:\\Users\\guilherme.silva\\AppData\\Local\\Temp\\xmey2s34.eqh\\.vstest\\tools\\net451\\vstest.console.exe\" enabled=\"True\" />\r\n    </Loggers>\r\n  </LoggerRunSettings>\r\n</RunSettings>",
  "TestCaseFilter": null
}
TpTrace Information: 0 : 20568, 5, 2020/10/14, 14:26:20.448, 5393419551346, testhost.dll, Discovery started.
TpTrace Information: 0 : 20568, 4, 2020/10/14, 14:26:20.453, 5393419599446, testhost.dll, AssemblyResolver.ctor: Creating AssemblyResolver with searchDirectories C:\Users\guilherme.silva\Documents\source\repos\poc-mutation-tests\tests\PoC.Mutation.Tests.Unit.Tests\bin\Debug\netcoreapp3.1
TpTrace Information: 0 : 20568, 4, 2020/10/14, 14:26:20.455, 5393419620710, testhost.dll, AssemblyResolver.AddSearchDirectories: Adding more searchDirectories C:\Users\guilherme.silva\Documents\source\repos\poc-mutation-tests\tests\PoC.Mutation.Tests.Unit.Tests\bin\Debug\netcoreapp3.1
TpTrace Information: 0 : 20568, 4, 2020/10/14, 14:26:20.458, 5393419652304, testhost.dll, AssemblyResolver.OnResolve: xunit.runner.visualstudio.dotnetcore.testadapter: Resolving assembly.
TpTrace Information: 0 : 20568, 4, 2020/10/14, 14:26:20.466, 5393419726582, testhost.dll, AssemblyResolver.OnResolve: Resolved assembly: xunit.runner.visualstudio.dotnetcore.testadapter, from path: C:\Users\guilherme.silva\Documents\source\repos\poc-mutation-tests\tests\PoC.Mutation.Tests.Unit.Tests\bin\Debug\netcoreapp3.1\xunit.runner.visualstudio.dotnetcore.testadapter.dll
TpTrace Information: 0 : 20568, 4, 2020/10/14, 14:26:20.472, 5393419794209, testhost.dll, AssemblyResolver.OnResolve: xunit.runner.utility.netcoreapp10: Resolving assembly.
TpTrace Information: 0 : 20568, 4, 2020/10/14, 14:26:20.479, 5393419858325, testhost.dll, AssemblyResolver.OnResolve: Resolved assembly: xunit.runner.utility.netcoreapp10, from path: C:\Users\guilherme.silva\Documents\source\repos\poc-mutation-tests\tests\PoC.Mutation.Tests.Unit.Tests\bin\Debug\netcoreapp3.1\xunit.runner.utility.netcoreapp10.dll
TpTrace Information: 0 : 20568, 4, 2020/10/14, 14:26:20.482, 5393419895392, testhost.dll, AssemblyResolver.OnResolve: System.ComponentModel.Primitives.resources: Resolving assembly.
TpTrace Information: 0 : 20568, 4, 2020/10/14, 14:26:20.483, 5393419897202, testhost.dll, AssemblyResolver.OnResolve: System.ComponentModel.Primitives.resources: Failed to load assembly.
TpTrace Information: 0 : 20568, 4, 2020/10/14, 14:26:20.483, 5393419900477, testhost.dll, AssemblyResolver.OnResolve: System.ComponentModel.Primitives.resources: Resolving assembly.
TpTrace Information: 0 : 20568, 4, 2020/10/14, 14:26:20.483, 5393419901051, testhost.dll, AssemblyResolver.OnResolve: System.ComponentModel.Primitives.resources: Resolved from cache.
TpTrace Information: 0 : 20568, 4, 2020/10/14, 14:26:20.484, 5393419912217, testhost.dll, AssemblyResolver.OnResolve: System.ComponentModel.Primitives.resources: Resolving assembly.
TpTrace Information: 0 : 20568, 4, 2020/10/14, 14:26:20.484, 5393419912776, testhost.dll, AssemblyResolver.OnResolve: System.ComponentModel.Primitives.resources: Resolved from cache.
TpTrace Information: 0 : 20568, 4, 2020/10/14, 14:26:20.490, 5393419969020, testhost.dll, TestPluginManager.CreateTestExtension: Attempting to load test extension: Xunit.Runner.VisualStudio.VsTestRunner
TpTrace Information: 0 : 20568, 4, 2020/10/14, 14:26:20.491, 5393419985083, testhost.dll, TestDiscoveryManager.DoDiscovery: Background test discovery started.
TpTrace Information: 0 : 20568, 4, 2020/10/14, 14:26:20.493, 5393419996693, testhost.dll, TestDiscoveryManager: Discovering tests from sources C:\Users\guilherme.silva\Documents\source\repos\poc-mutation-tests\tests\PoC.Mutation.Tests.Unit.Tests\bin\Debug\netcoreapp3.1\PoC.Mutation.Tests.Unit.Tests.dll
TpTrace Information: 0 : 20568, 4, 2020/10/14, 14:26:20.501, 5393420077149, testhost.dll, AssemblyResolver.AddSearchDirectories: Adding more searchDirectories C:\Users\guilherme.silva\Documents\source\repos\poc-mutation-tests\tests\PoC.Mutation.Tests.Unit.Tests\bin\Debug\netcoreapp3.1
TpTrace Information: 0 : 20568, 4, 2020/10/14, 14:26:20.501, 5393420078072, testhost.dll, AssemblyResolver.AddSearchDirectories: Adding more searchDirectories C:\Users\guilherme.silva\Documents\source\repos\poc-mutation-tests\tests\PoC.Mutation.Tests.Unit.Tests\bin\Debug\netcoreapp3.1
TpTrace Information: 0 : 20568, 4, 2020/10/14, 14:26:20.517, 5393420240351, testhost.dll, PEReaderHelper.GetAssemblyType: Determined assemblyType:'Managed' for source: 'C:\Users\guilherme.silva\Documents\source\repos\poc-mutation-tests\tests\PoC.Mutation.Tests.Unit.Tests\bin\Debug\netcoreapp3.1\PoC.Mutation.Tests.Unit.Tests.dll'
TpTrace Information: 0 : 20568, 4, 2020/10/14, 14:26:20.522, 5393420292072, testhost.dll, TestDiscoveryManager.RunMessage: calling TestRunMessage(Informational, [xUnit.net 00:00:00.00] xUnit.net VSTest Adapter v2.4.0 (64-bit .NET Core 3.1.8)) callback.
TpTrace Information: 0 : 20568, 4, 2020/10/14, 14:26:20.522, 5393420293509, testhost.dll, [xUnit.net 00:00:00.00] xUnit.net VSTest Adapter v2.4.0 (64-bit .NET Core 3.1.8)
TpTrace Information: 0 : 20568, 4, 2020/10/14, 14:26:20.864, 5393423706142, testhost.dll, AssemblyResolver.OnResolve: xunit.runner.reporters.netcoreapp10: Resolving assembly.
TpTrace Information: 0 : 20568, 4, 2020/10/14, 14:26:20.869, 5393423764067, testhost.dll, AssemblyResolver.OnResolve: Resolved assembly: xunit.runner.reporters.netcoreapp10, from path: C:\Users\guilherme.silva\Documents\source\repos\poc-mutation-tests\tests\PoC.Mutation.Tests.Unit.Tests\bin\Debug\netcoreapp3.1\xunit.runner.reporters.netcoreapp10.dll
TpTrace Information: 0 : 20568, 4, 2020/10/14, 14:26:20.903, 5393424099056, testhost.dll, TestDiscoveryManager.RunMessage: calling TestRunMessage(Informational, [xUnit.net 00:00:00.38]   Discovering: PoC.Mutation.Tests.Unit.Tests) callback.
TpTrace Information: 0 : 20568, 4, 2020/10/14, 14:26:20.903, 5393424099967, testhost.dll, [xUnit.net 00:00:00.38]   Discovering: PoC.Mutation.Tests.Unit.Tests
TpTrace Information: 0 : 20568, 12, 2020/10/14, 14:26:20.953, 5393424597754, testhost.dll, Test Cases found 
TpTrace Information: 0 : 20568, 12, 2020/10/14, 14:26:20.972, 5393424786683, testhost.dll, Test Cases found 
TpTrace Information: 0 : 20568, 12, 2020/10/14, 14:26:20.972, 5393424789249, testhost.dll, Test Cases found 
TpTrace Information: 0 : 20568, 12, 2020/10/14, 14:26:20.972, 5393424790569, testhost.dll, Test Cases found 
TpTrace Information: 0 : 20568, 12, 2020/10/14, 14:26:20.972, 5393424791799, testhost.dll, Test Cases found 
TpTrace Information: 0 : 20568, 12, 2020/10/14, 14:26:20.972, 5393424793408, testhost.dll, Test Cases found 
TpTrace Information: 0 : 20568, 4, 2020/10/14, 14:26:20.973, 5393424803827, testhost.dll, TestDiscoveryManager.RunMessage: calling TestRunMessage(Informational, [xUnit.net 00:00:00.45]   Discovered:  PoC.Mutation.Tests.Unit.Tests) callback.
TpTrace Information: 0 : 20568, 4, 2020/10/14, 14:26:20.973, 5393424804881, testhost.dll, [xUnit.net 00:00:00.45]   Discovered:  PoC.Mutation.Tests.Unit.Tests
TpTrace Information: 0 : 20568, 4, 2020/10/14, 14:26:20.978, 5393424847636, testhost.dll, Discover Finished.
TpTrace Information: 0 : 20568, 5, 2020/10/14, 14:26:20.989, 5393424962776, testhost.dll, TestRequestHandler.ProcessRequests: received message: (TestSession.Terminate) -> null
TpTrace Information: 0 : 20568, 5, 2020/10/14, 14:26:20.989, 5393424963950, testhost.dll, Session End message received from server. Closing the connection.
TpTrace Information: 0 : 20568, 5, 2020/10/14, 14:26:20.990, 5393424966655, testhost.dll, SocketClient.Stop: Stop communication from server endpoint: 127.0.0.1:064248
TpTrace Information: 0 : 20568, 1, 2020/10/14, 14:26:20.990, 5393424966775, testhost.dll, SocketClient.Stop: Stop communication from server endpoint: 127.0.0.1:064248
TpTrace Information: 0 : 20568, 1, 2020/10/14, 14:26:20.990, 5393424967932, testhost.dll, SocketClient: Stop: Cancellation requested. Stopping message loop.
TpTrace Information: 0 : 20568, 5, 2020/10/14, 14:26:20.990, 5393424967300, testhost.dll, SocketClient: Stop: Cancellation requested. Stopping message loop.
TpTrace Information: 0 : 20568, 5, 2020/10/14, 14:26:20.990, 5393424969824, testhost.dll, Closing the connection !
TpTrace Information: 0 : 20568, 1, 2020/10/14, 14:26:20.990, 5393424970189, testhost.dll, Testhost process exiting.
TpTrace Information: 0 : 20568, 5, 2020/10/14, 14:26:20.990, 5393424971795, testhost.dll, SocketClient.PrivateStop: Stop communication from server endpoint: 127.0.0.1:064248, error:
