TpTrace Information: 0 : 15316, 1, 2020/10/14, 14:09:23.351, 5383248586242, testhost.dll, DefaultEngineInvoker.Invoke: Testhost process started with args :[--port, 63971],[--endpoint, 127.0.0.1:063971],[--role, client],[--parentprocessid, 22944],[--diag, C:\Users\guilherme.silva\Documents\source\repos\poc-mutation-tests\tests\PoC.Mutation.Tests.Unit.Tests\StrykerOutput\2020-10-14.14-09-07\logs\VsTest-log.host.20-10-14_14-09-23_19441_9.txt],[--tracelevel, 3],[--telemetryoptedin, false]
TpTrace Information: 0 : 15316, 1, 2020/10/14, 14:09:23.354, 5383248611701, testhost.dll, DefaultEngineInvoker.SetParentProcessExitCallback: Monitoring parent process with id: '22944'
TpTrace Information: 0 : 15316, 1, 2020/10/14, 14:09:23.361, 5383248674687, testhost.dll, DefaultEngineInvoker.GetConnectionInfo: Initialize communication on endpoint address: '127.0.0.1:063971'
TpTrace Information: 0 : 15316, 1, 2020/10/14, 14:09:23.374, 5383248805149, testhost.dll, SocketClient.Start: connecting to server endpoint: 127.0.0.1:063971
TpTrace Information: 0 : 15316, 1, 2020/10/14, 14:09:23.378, 5383248850506, testhost.dll, DefaultEngineInvoker.Invoke: Start Request Processing.
TpTrace Information: 0 : 15316, 9, 2020/10/14, 14:09:23.380, 5383248867748, testhost.dll, SocketClient.OnServerConnected: connected to server endpoint: 127.0.0.1:063971
TpTrace Information: 0 : 15316, 8, 2020/10/14, 14:09:23.381, 5383248882966, testhost.dll, DefaultEngineInvoker.StartProcessingAsync: Connected to vstest.console, Starting process requests.
TpTrace Information: 0 : 15316, 9, 2020/10/14, 14:09:23.480, 5383249866329, testhost.dll, TestRequestHandler.ProcessRequests: received message: (ProtocolVersion) -> 3
TpTrace Information: 0 : 15316, 9, 2020/10/14, 14:09:23.508, 5383250145563, testhost.dll, TestRequestHandler.ProcessRequests: received message: (TestExecution.Initialize) -> [
  "C:\\Users\\guilherme.silva\\Documents\\source\\repos\\poc-mutation-tests\\tests\\PoC.Mutation.Tests.Unit.Tests\\bin\\Debug\\netcoreapp3.1\\xunit.runner.visualstudio.dotnetcore.testadapter.dll"
]
TpTrace Information: 0 : 15316, 9, 2020/10/14, 14:09:23.508, 5383250147034, testhost.dll, Execution Session Initialize.
TpTrace Information: 0 : 15316, 9, 2020/10/14, 14:09:23.514, 5383250209909, testhost.dll, TestRequestHandler.ProcessRequests: received message: (TestExecution.StartWithSources) -> {
  "AdapterSourceMap": {
    "_none_": [
      "C:\\Users\\guilherme.silva\\Documents\\source\\repos\\poc-mutation-tests\\tests\\PoC.Mutation.Tests.Unit.Tests\\bin\\Debug\\netcoreapp3.1\\PoC.Mutation.Tests.Unit.Tests.dll"
    ]
  },
  "RunSettings": "<RunSettings>\r\n  <RunConfiguration>\r\n    <MaxCpuCount>1</MaxCpuCount>\r\n    <TargetFrameworkVersion>.NETCoreApp,Version=v3.1</TargetFrameworkVersion>\r\n    <DisableParallelization>true</DisableParallelization>\r\n    <DesignMode>false</DesignMode>\r\n    <BatchSize>1</BatchSize>\r\n    <TargetPlatform>X64</TargetPlatform>\r\n    <CollectSourceInformation>True</CollectSourceInformation>\r\n  </RunConfiguration>\r\n  <LoggerRunSettings>\r\n    <Loggers>\r\n      <Logger friendlyName=\"Console\" uri=\"logger://microsoft/TestPlatform/ConsoleLogger/v1\" assemblyQualifiedName=\"Microsoft.VisualStudio.TestPlatform.CommandLine.Internal.ConsoleLogger, vstest.console, Version=15.0.0.0, Culture=neutral, PublicKeyToken=b03f5f7f11d50a3a\" codeBase=\"C:\\Users\\guilherme.silva\\AppData\\Local\\Temp\\cdcyeefz.fgg\\.vstest\\tools\\net451\\vstest.console.exe\" enabled=\"True\" />\r\n    </Loggers>\r\n  </LoggerRunSettings>\r\n</RunSettings>",
  "TestExecutionContext": {
    "FrequencyOfRunStatsChangeEvent": 1,
    "RunStatsChangeEventTimeout": "00:00:01.5000000",
    "InIsolation": false,
    "KeepAlive": false,
    "AreTestCaseLevelEventsRequired": false,
    "IsDebug": false,
    "TestCaseFilter": null,
    "FilterOptions": null
  },
  "Package": null
}
TpTrace Information: 0 : 15316, 9, 2020/10/14, 14:09:23.514, 5383250211089, testhost.dll, Execution started.
TpTrace Information: 0 : 15316, 4, 2020/10/14, 14:09:23.519, 5383250259127, testhost.dll, AssemblyResolver.ctor: Creating AssemblyResolver with searchDirectories C:\Users\guilherme.silva\Documents\source\repos\poc-mutation-tests\tests\PoC.Mutation.Tests.Unit.Tests\bin\Debug\netcoreapp3.1
TpTrace Information: 0 : 15316, 4, 2020/10/14, 14:09:23.521, 5383250281340, testhost.dll, AssemblyResolver.AddSearchDirectories: Adding more searchDirectories C:\Users\guilherme.silva\Documents\source\repos\poc-mutation-tests\tests\PoC.Mutation.Tests.Unit.Tests\bin\Debug\netcoreapp3.1
TpTrace Information: 0 : 15316, 4, 2020/10/14, 14:09:23.525, 5383250316694, testhost.dll, AssemblyResolver.OnResolve: xunit.runner.visualstudio.dotnetcore.testadapter: Resolving assembly.
TpTrace Information: 0 : 15316, 4, 2020/10/14, 14:09:23.526, 5383250330797, testhost.dll, AssemblyResolver.OnResolve: Resolved assembly: xunit.runner.visualstudio.dotnetcore.testadapter, from path: C:\Users\guilherme.silva\Documents\source\repos\poc-mutation-tests\tests\PoC.Mutation.Tests.Unit.Tests\bin\Debug\netcoreapp3.1\xunit.runner.visualstudio.dotnetcore.testadapter.dll
TpTrace Information: 0 : 15316, 4, 2020/10/14, 14:09:23.528, 5383250353111, testhost.dll, AssemblyResolver.OnResolve: xunit.runner.utility.netcoreapp10: Resolving assembly.
TpTrace Information: 0 : 15316, 4, 2020/10/14, 14:09:23.529, 5383250359479, testhost.dll, AssemblyResolver.OnResolve: Resolved assembly: xunit.runner.utility.netcoreapp10, from path: C:\Users\guilherme.silva\Documents\source\repos\poc-mutation-tests\tests\PoC.Mutation.Tests.Unit.Tests\bin\Debug\netcoreapp3.1\xunit.runner.utility.netcoreapp10.dll
TpTrace Information: 0 : 15316, 4, 2020/10/14, 14:09:23.538, 5383250445143, testhost.dll, TestPluginManager.CreateTestExtension: Attempting to load test extension: Xunit.Runner.VisualStudio.VsTestRunner
TpTrace Information: 0 : 15316, 4, 2020/10/14, 14:09:23.539, 5383250455627, testhost.dll, AssemblyResolver.AddSearchDirectories: Adding more searchDirectories C:\Users\guilherme.silva\Documents\source\repos\poc-mutation-tests\tests\PoC.Mutation.Tests.Unit.Tests\bin\Debug\netcoreapp3.1
TpTrace Information: 0 : 15316, 4, 2020/10/14, 14:09:23.539, 5383250456321, testhost.dll, AssemblyResolver.AddSearchDirectories: Adding more searchDirectories C:\Users\guilherme.silva\Documents\source\repos\poc-mutation-tests\tests\PoC.Mutation.Tests.Unit.Tests\bin\Debug\netcoreapp3.1
TpTrace Information: 0 : 15316, 4, 2020/10/14, 14:09:23.540, 5383250464511, testhost.dll, TestExecutorService: Loaded the extensions
TpTrace Information: 0 : 15316, 4, 2020/10/14, 14:09:23.590, 5383250968309, testhost.dll, TestDiscoveryManager: Discovering tests from sources C:\Users\guilherme.silva\Documents\source\repos\poc-mutation-tests\tests\PoC.Mutation.Tests.Unit.Tests\bin\Debug\netcoreapp3.1\PoC.Mutation.Tests.Unit.Tests.dll
TpTrace Information: 0 : 15316, 4, 2020/10/14, 14:09:23.592, 5383250983645, testhost.dll, AssemblyResolver.AddSearchDirectories: Adding more searchDirectories C:\Users\guilherme.silva\Documents\source\repos\poc-mutation-tests\tests\PoC.Mutation.Tests.Unit.Tests\bin\Debug\netcoreapp3.1
TpTrace Information: 0 : 15316, 4, 2020/10/14, 14:09:23.592, 5383250984221, testhost.dll, AssemblyResolver.AddSearchDirectories: Adding more searchDirectories C:\Users\guilherme.silva\Documents\source\repos\poc-mutation-tests\tests\PoC.Mutation.Tests.Unit.Tests\bin\Debug\netcoreapp3.1
TpTrace Information: 0 : 15316, 4, 2020/10/14, 14:09:23.593, 5383251000234, testhost.dll, AssemblyResolver.OnResolve: System.ComponentModel.Primitives.resources: Resolving assembly.
TpTrace Information: 0 : 15316, 4, 2020/10/14, 14:09:23.593, 5383251001359, testhost.dll, AssemblyResolver.OnResolve: System.ComponentModel.Primitives.resources: Failed to load assembly.
TpTrace Information: 0 : 15316, 4, 2020/10/14, 14:09:23.594, 5383251004323, testhost.dll, AssemblyResolver.OnResolve: System.ComponentModel.Primitives.resources: Resolving assembly.
TpTrace Information: 0 : 15316, 4, 2020/10/14, 14:09:23.594, 5383251004749, testhost.dll, AssemblyResolver.OnResolve: System.ComponentModel.Primitives.resources: Resolved from cache.
TpTrace Information: 0 : 15316, 4, 2020/10/14, 14:09:23.595, 5383251015558, testhost.dll, AssemblyResolver.OnResolve: System.ComponentModel.Primitives.resources: Resolving assembly.
TpTrace Information: 0 : 15316, 4, 2020/10/14, 14:09:23.595, 5383251015976, testhost.dll, AssemblyResolver.OnResolve: System.ComponentModel.Primitives.resources: Resolved from cache.
TpTrace Information: 0 : 15316, 4, 2020/10/14, 14:09:23.602, 5383251091261, testhost.dll, PEReaderHelper.GetAssemblyType: Determined assemblyType:'Managed' for source: 'C:\Users\guilherme.silva\Documents\source\repos\poc-mutation-tests\tests\PoC.Mutation.Tests.Unit.Tests\bin\Debug\netcoreapp3.1\PoC.Mutation.Tests.Unit.Tests.dll'
TpTrace Information: 0 : 15316, 4, 2020/10/14, 14:09:23.610, 5383251167109, testhost.dll, [xUnit.net 00:00:00.00] xUnit.net VSTest Adapter v2.4.0 (64-bit .NET Core 3.1.8)
TpTrace Information: 0 : 15316, 4, 2020/10/14, 14:09:23.883, 5383253897963, testhost.dll, AssemblyResolver.OnResolve: xunit.runner.reporters.netcoreapp10: Resolving assembly.
TpTrace Information: 0 : 15316, 4, 2020/10/14, 14:09:23.884, 5383253905029, testhost.dll, AssemblyResolver.OnResolve: Resolved assembly: xunit.runner.reporters.netcoreapp10, from path: C:\Users\guilherme.silva\Documents\source\repos\poc-mutation-tests\tests\PoC.Mutation.Tests.Unit.Tests\bin\Debug\netcoreapp3.1\xunit.runner.reporters.netcoreapp10.dll
TpTrace Information: 0 : 15316, 4, 2020/10/14, 14:09:23.932, 5383254389179, testhost.dll, [xUnit.net 00:00:00.32]   Discovering: PoC.Mutation.Tests.Unit.Tests
TpTrace Information: 0 : 15316, 4, 2020/10/14, 14:09:23.976, 5383254832782, testhost.dll, [xUnit.net 00:00:00.37]   Discovered:  PoC.Mutation.Tests.Unit.Tests
TpTrace Information: 0 : 15316, 4, 2020/10/14, 14:09:23.978, 5383254851634, testhost.dll, [xUnit.net 00:00:00.37]   Starting:    PoC.Mutation.Tests.Unit.Tests
TpTrace Information: 0 : 15316, 4, 2020/10/14, 14:09:24.012, 5383255186614, testhost.dll, Sending test run statistics
TpTrace Warning: 0 : 15316, 4, 2020/10/14, 14:09:24.051, 5383255573588, testhost.dll, InProgressTests is null
TpTrace Warning: 0 : 15316, 4, 2020/10/14, 14:09:24.058, 5383255645619, testhost.dll, TestRunCache: No test found corresponding to testResult 'PoC.Mutation.Tests.Main.UnitTest1.CalculateShouldCalculateADiscount(amount: 1533,45, percent: 0,2, expectedAmount: 1226,76)  Aprovado' in inProgress list.
TpTrace Information: 0 : 15316, 4, 2020/10/14, 14:09:24.058, 5383255646797, testhost.dll, Sending test run statistics
TpTrace Warning: 0 : 15316, 4, 2020/10/14, 14:09:24.065, 5383255722448, testhost.dll, InProgressTests is null
TpTrace Information: 0 : 15316, 4, 2020/10/14, 14:09:24.066, 5383255725303, testhost.dll, Sending test run statistics
TpTrace Warning: 0 : 15316, 4, 2020/10/14, 14:09:24.066, 5383255728049, testhost.dll, InProgressTests is null
TpTrace Warning: 0 : 15316, 4, 2020/10/14, 14:09:24.066, 5383255728458, testhost.dll, TestRunCache: No test found corresponding to testResult 'PoC.Mutation.Tests.Main.UnitTest1.CalculateShouldCalculateADiscount(amount: 1, percent: 1, expectedAmount: 0)  Aprovado' in inProgress list.
TpTrace Information: 0 : 15316, 4, 2020/10/14, 14:09:24.066, 5383255728710, testhost.dll, Sending test run statistics
TpTrace Warning: 0 : 15316, 4, 2020/10/14, 14:09:24.066, 5383255730045, testhost.dll, InProgressTests is null
TpTrace Information: 0 : 15316, 4, 2020/10/14, 14:09:24.070, 5383255772226, testhost.dll, [xUnit.net 00:00:00.46]   Finished:    PoC.Mutation.Tests.Unit.Tests
TpTrace Information: 0 : 15316, 4, 2020/10/14, 14:09:24.075, 5383255822226, testhost.dll, Sending test run complete
TpTrace Information: 0 : 15316, 9, 2020/10/14, 14:09:24.084, 5383255904061, testhost.dll, TestRequestHandler.ProcessRequests: received message: (TestSession.Terminate) -> null
TpTrace Information: 0 : 15316, 9, 2020/10/14, 14:09:24.084, 5383255904907, testhost.dll, Session End message received from server. Closing the connection.
TpTrace Information: 0 : 15316, 9, 2020/10/14, 14:09:24.084, 5383255906779, testhost.dll, SocketClient.Stop: Stop communication from server endpoint: 127.0.0.1:063971
TpTrace Information: 0 : 15316, 9, 2020/10/14, 14:09:24.084, 5383255907371, testhost.dll, SocketClient: Stop: Cancellation requested. Stopping message loop.
TpTrace Information: 0 : 15316, 1, 2020/10/14, 14:09:24.084, 5383255906914, testhost.dll, SocketClient.Stop: Stop communication from server endpoint: 127.0.0.1:063971
TpTrace Information: 0 : 15316, 1, 2020/10/14, 14:09:24.084, 5383255908511, testhost.dll, SocketClient: Stop: Cancellation requested. Stopping message loop.
TpTrace Information: 0 : 15316, 9, 2020/10/14, 14:09:24.084, 5383255908998, testhost.dll, Closing the connection !
TpTrace Information: 0 : 15316, 1, 2020/10/14, 14:09:24.084, 5383255909399, testhost.dll, Testhost process exiting.
TpTrace Information: 0 : 15316, 9, 2020/10/14, 14:09:24.084, 5383255910692, testhost.dll, SocketClient.PrivateStop: Stop communication from server endpoint: 127.0.0.1:063971, error:
