TpTrace Information: 0 : 19304, 1, 2020/10/14, 14:30:05.254, 5395667617146, testhost.dll, DefaultEngineInvoker.Invoke: Testhost process started with args :[--port, 64314],[--endpoint, 127.0.0.1:064314],[--role, client],[--parentprocessid, 2024],[--diag, C:\Users\guilherme.silva\Documents\source\repos\poc-mutation-tests\tests\PoC.Mutation.Tests.Unit.Tests\StrykerOutput\2020-10-14.14-29-51\logs\VsTest-log.host.20-10-14_14-30-05_09725_9.txt],[--tracelevel, 3],[--telemetryoptedin, false]
TpTrace Information: 0 : 19304, 1, 2020/10/14, 14:30:05.257, 5395667642293, testhost.dll, DefaultEngineInvoker.SetParentProcessExitCallback: Monitoring parent process with id: '2024'
TpTrace Information: 0 : 19304, 1, 2020/10/14, 14:30:05.263, 5395667702176, testhost.dll, DefaultEngineInvoker.GetConnectionInfo: Initialize communication on endpoint address: '127.0.0.1:064314'
TpTrace Information: 0 : 19304, 1, 2020/10/14, 14:30:05.276, 5395667830395, testhost.dll, SocketClient.Start: connecting to server endpoint: 127.0.0.1:064314
TpTrace Information: 0 : 19304, 1, 2020/10/14, 14:30:05.280, 5395667875416, testhost.dll, DefaultEngineInvoker.Invoke: Start Request Processing.
TpTrace Information: 0 : 19304, 9, 2020/10/14, 14:30:05.282, 5395667891348, testhost.dll, SocketClient.OnServerConnected: connected to server endpoint: 127.0.0.1:064314
TpTrace Information: 0 : 19304, 8, 2020/10/14, 14:30:05.284, 5395667907013, testhost.dll, DefaultEngineInvoker.StartProcessingAsync: Connected to vstest.console, Starting process requests.
TpTrace Information: 0 : 19304, 9, 2020/10/14, 14:30:05.416, 5395669228728, testhost.dll, TestRequestHandler.ProcessRequests: received message: (ProtocolVersion) -> 3
TpTrace Information: 0 : 19304, 9, 2020/10/14, 14:30:05.454, 5395669609949, testhost.dll, TestRequestHandler.ProcessRequests: received message: (TestExecution.Initialize) -> [
  "C:\\Users\\guilherme.silva\\Documents\\source\\repos\\poc-mutation-tests\\tests\\PoC.Mutation.Tests.Unit.Tests\\bin\\Debug\\netcoreapp3.1\\xunit.runner.visualstudio.dotnetcore.testadapter.dll"
]
TpTrace Information: 0 : 19304, 9, 2020/10/14, 14:30:05.454, 5395669611791, testhost.dll, Execution Session Initialize.
TpTrace Information: 0 : 19304, 9, 2020/10/14, 14:30:05.465, 5395669718350, testhost.dll, TestRequestHandler.ProcessRequests: received message: (TestExecution.StartWithSources) -> {
  "AdapterSourceMap": {
    "_none_": [
      "C:\\Users\\guilherme.silva\\Documents\\source\\repos\\poc-mutation-tests\\tests\\PoC.Mutation.Tests.Unit.Tests\\bin\\Debug\\netcoreapp3.1\\PoC.Mutation.Tests.Unit.Tests.dll"
    ]
  },
  "RunSettings": "<RunSettings>\r\n  <RunConfiguration>\r\n    <MaxCpuCount>1</MaxCpuCount>\r\n    <TargetFrameworkVersion>.NETCoreApp,Version=v3.1</TargetFrameworkVersion>\r\n    <DisableParallelization>true</DisableParallelization>\r\n    <DesignMode>false</DesignMode>\r\n    <BatchSize>1</BatchSize>\r\n    <TargetPlatform>X64</TargetPlatform>\r\n    <CollectSourceInformation>True</CollectSourceInformation>\r\n  </RunConfiguration>\r\n  <LoggerRunSettings>\r\n    <Loggers>\r\n      <Logger friendlyName=\"Console\" uri=\"logger://microsoft/TestPlatform/ConsoleLogger/v1\" assemblyQualifiedName=\"Microsoft.VisualStudio.TestPlatform.CommandLine.Internal.ConsoleLogger, vstest.console, Version=15.0.0.0, Culture=neutral, PublicKeyToken=b03f5f7f11d50a3a\" codeBase=\"C:\\Users\\guilherme.silva\\AppData\\Local\\Temp\\hpchfd1g.fia\\.vstest\\tools\\net451\\vstest.console.exe\" enabled=\"True\" />\r\n    </Loggers>\r\n  </LoggerRunSettings>\r\n</RunSettings>",
  "TestExecutionContext": {
    "FrequencyOfRunStatsChangeEvent": 1,
    "RunStatsChangeEventTimeout": "00:00:01.5000000",
    "InIsolation": false,
    "KeepAlive": false,
    "AreTestCaseLevelEventsRequired": false,
    "IsDebug": false,
    "TestCaseFilter": null,
    "FilterOptions": null
  },
  "Package": null
}
TpTrace Information: 0 : 19304, 9, 2020/10/14, 14:30:05.465, 5395669719992, testhost.dll, Execution started.
TpTrace Information: 0 : 19304, 4, 2020/10/14, 14:30:05.470, 5395669774915, testhost.dll, AssemblyResolver.ctor: Creating AssemblyResolver with searchDirectories C:\Users\guilherme.silva\Documents\source\repos\poc-mutation-tests\tests\PoC.Mutation.Tests.Unit.Tests\bin\Debug\netcoreapp3.1
TpTrace Information: 0 : 19304, 4, 2020/10/14, 14:30:05.473, 5395669797961, testhost.dll, AssemblyResolver.AddSearchDirectories: Adding more searchDirectories C:\Users\guilherme.silva\Documents\source\repos\poc-mutation-tests\tests\PoC.Mutation.Tests.Unit.Tests\bin\Debug\netcoreapp3.1
TpTrace Information: 0 : 19304, 4, 2020/10/14, 14:30:05.476, 5395669834444, testhost.dll, AssemblyResolver.OnResolve: xunit.runner.visualstudio.dotnetcore.testadapter: Resolving assembly.
TpTrace Information: 0 : 19304, 4, 2020/10/14, 14:30:05.478, 5395669848127, testhost.dll, AssemblyResolver.OnResolve: Resolved assembly: xunit.runner.visualstudio.dotnetcore.testadapter, from path: C:\Users\guilherme.silva\Documents\source\repos\poc-mutation-tests\tests\PoC.Mutation.Tests.Unit.Tests\bin\Debug\netcoreapp3.1\xunit.runner.visualstudio.dotnetcore.testadapter.dll
TpTrace Information: 0 : 19304, 4, 2020/10/14, 14:30:05.480, 5395669870611, testhost.dll, AssemblyResolver.OnResolve: xunit.runner.utility.netcoreapp10: Resolving assembly.
TpTrace Information: 0 : 19304, 4, 2020/10/14, 14:30:05.481, 5395669876986, testhost.dll, AssemblyResolver.OnResolve: Resolved assembly: xunit.runner.utility.netcoreapp10, from path: C:\Users\guilherme.silva\Documents\source\repos\poc-mutation-tests\tests\PoC.Mutation.Tests.Unit.Tests\bin\Debug\netcoreapp3.1\xunit.runner.utility.netcoreapp10.dll
TpTrace Information: 0 : 19304, 4, 2020/10/14, 14:30:05.489, 5395669964928, testhost.dll, TestPluginManager.CreateTestExtension: Attempting to load test extension: Xunit.Runner.VisualStudio.VsTestRunner
TpTrace Information: 0 : 19304, 4, 2020/10/14, 14:30:05.490, 5395669975503, testhost.dll, AssemblyResolver.AddSearchDirectories: Adding more searchDirectories C:\Users\guilherme.silva\Documents\source\repos\poc-mutation-tests\tests\PoC.Mutation.Tests.Unit.Tests\bin\Debug\netcoreapp3.1
TpTrace Information: 0 : 19304, 4, 2020/10/14, 14:30:05.491, 5395669976215, testhost.dll, AssemblyResolver.AddSearchDirectories: Adding more searchDirectories C:\Users\guilherme.silva\Documents\source\repos\poc-mutation-tests\tests\PoC.Mutation.Tests.Unit.Tests\bin\Debug\netcoreapp3.1
TpTrace Information: 0 : 19304, 4, 2020/10/14, 14:30:05.491, 5395669984569, testhost.dll, TestExecutorService: Loaded the extensions
TpTrace Information: 0 : 19304, 4, 2020/10/14, 14:30:05.544, 5395670512584, testhost.dll, TestDiscoveryManager: Discovering tests from sources C:\Users\guilherme.silva\Documents\source\repos\poc-mutation-tests\tests\PoC.Mutation.Tests.Unit.Tests\bin\Debug\netcoreapp3.1\PoC.Mutation.Tests.Unit.Tests.dll
TpTrace Information: 0 : 19304, 4, 2020/10/14, 14:30:05.546, 5395670531970, testhost.dll, AssemblyResolver.AddSearchDirectories: Adding more searchDirectories C:\Users\guilherme.silva\Documents\source\repos\poc-mutation-tests\tests\PoC.Mutation.Tests.Unit.Tests\bin\Debug\netcoreapp3.1
TpTrace Information: 0 : 19304, 4, 2020/10/14, 14:30:05.546, 5395670533000, testhost.dll, AssemblyResolver.AddSearchDirectories: Adding more searchDirectories C:\Users\guilherme.silva\Documents\source\repos\poc-mutation-tests\tests\PoC.Mutation.Tests.Unit.Tests\bin\Debug\netcoreapp3.1
TpTrace Information: 0 : 19304, 4, 2020/10/14, 14:30:05.548, 5395670555242, testhost.dll, AssemblyResolver.OnResolve: System.ComponentModel.Primitives.resources: Resolving assembly.
TpTrace Information: 0 : 19304, 4, 2020/10/14, 14:30:05.549, 5395670557560, testhost.dll, AssemblyResolver.OnResolve: System.ComponentModel.Primitives.resources: Failed to load assembly.
TpTrace Information: 0 : 19304, 4, 2020/10/14, 14:30:05.549, 5395670562536, testhost.dll, AssemblyResolver.OnResolve: System.ComponentModel.Primitives.resources: Resolving assembly.
TpTrace Information: 0 : 19304, 4, 2020/10/14, 14:30:05.549, 5395670563595, testhost.dll, AssemblyResolver.OnResolve: System.ComponentModel.Primitives.resources: Resolved from cache.
TpTrace Information: 0 : 19304, 4, 2020/10/14, 14:30:05.551, 5395670579330, testhost.dll, AssemblyResolver.OnResolve: System.ComponentModel.Primitives.resources: Resolving assembly.
TpTrace Information: 0 : 19304, 4, 2020/10/14, 14:30:05.551, 5395670580235, testhost.dll, AssemblyResolver.OnResolve: System.ComponentModel.Primitives.resources: Resolved from cache.
TpTrace Information: 0 : 19304, 4, 2020/10/14, 14:30:05.558, 5395670655898, testhost.dll, PEReaderHelper.GetAssemblyType: Determined assemblyType:'Managed' for source: 'C:\Users\guilherme.silva\Documents\source\repos\poc-mutation-tests\tests\PoC.Mutation.Tests.Unit.Tests\bin\Debug\netcoreapp3.1\PoC.Mutation.Tests.Unit.Tests.dll'
TpTrace Information: 0 : 19304, 4, 2020/10/14, 14:30:05.566, 5395670734575, testhost.dll, [xUnit.net 00:00:00.00] xUnit.net VSTest Adapter v2.4.0 (64-bit .NET Core 3.1.8)
TpTrace Information: 0 : 19304, 4, 2020/10/14, 14:30:05.836, 5395673430970, testhost.dll, AssemblyResolver.OnResolve: xunit.runner.reporters.netcoreapp10: Resolving assembly.
TpTrace Information: 0 : 19304, 4, 2020/10/14, 14:30:05.837, 5395673437432, testhost.dll, AssemblyResolver.OnResolve: Resolved assembly: xunit.runner.reporters.netcoreapp10, from path: C:\Users\guilherme.silva\Documents\source\repos\poc-mutation-tests\tests\PoC.Mutation.Tests.Unit.Tests\bin\Debug\netcoreapp3.1\xunit.runner.reporters.netcoreapp10.dll
TpTrace Information: 0 : 19304, 4, 2020/10/14, 14:30:05.885, 5395673916929, testhost.dll, [xUnit.net 00:00:00.32]   Discovering: PoC.Mutation.Tests.Unit.Tests
TpTrace Information: 0 : 19304, 4, 2020/10/14, 14:30:05.928, 5395674349347, testhost.dll, [xUnit.net 00:00:00.36]   Discovered:  PoC.Mutation.Tests.Unit.Tests
TpTrace Information: 0 : 19304, 4, 2020/10/14, 14:30:05.930, 5395674368738, testhost.dll, [xUnit.net 00:00:00.36]   Starting:    PoC.Mutation.Tests.Unit.Tests
TpTrace Information: 0 : 19304, 4, 2020/10/14, 14:30:05.964, 5395674715097, testhost.dll, Sending test run statistics
TpTrace Warning: 0 : 19304, 4, 2020/10/14, 14:30:06.000, 5395675071988, testhost.dll, InProgressTests is null
TpTrace Warning: 0 : 19304, 4, 2020/10/14, 14:30:06.006, 5395675133456, testhost.dll, TestRunCache: No test found corresponding to testResult 'PoC.Mutation.Tests.Unit.Tests.UnitTest1.Calculate_WhenPercentOfDiscountIsLessOrEqualZero_ShoudNotCalculateADiscount(amount: 2155,21, percent: 0)  Aprovado' in inProgress list.
TpTrace Information: 0 : 19304, 4, 2020/10/14, 14:30:06.006, 5395675134374, testhost.dll, Sending test run statistics
TpTrace Warning: 0 : 19304, 4, 2020/10/14, 14:30:06.013, 5395675204880, testhost.dll, InProgressTests is null
TpTrace Information: 0 : 19304, 4, 2020/10/14, 14:30:06.014, 5395675208082, testhost.dll, Sending test run statistics
TpTrace Warning: 0 : 19304, 4, 2020/10/14, 14:30:06.014, 5395675211290, testhost.dll, InProgressTests is null
TpTrace Warning: 0 : 19304, 4, 2020/10/14, 14:30:06.014, 5395675211760, testhost.dll, TestRunCache: No test found corresponding to testResult 'PoC.Mutation.Tests.Unit.Tests.UnitTest1.Calculate_WhenPercentOfDiscountIsLessOrEqualZero_ShoudNotCalculateADiscount(amount: 1500, percent: -1)  Aprovado' in inProgress list.
TpTrace Information: 0 : 19304, 4, 2020/10/14, 14:30:06.014, 5395675212046, testhost.dll, Sending test run statistics
TpTrace Warning: 0 : 19304, 4, 2020/10/14, 14:30:06.014, 5395675213630, testhost.dll, InProgressTests is null
TpTrace Information: 0 : 19304, 4, 2020/10/14, 14:30:06.015, 5395675215993, testhost.dll, Sending test run statistics
TpTrace Warning: 0 : 19304, 4, 2020/10/14, 14:30:06.017, 5395675236161, testhost.dll, InProgressTests is null
TpTrace Warning: 0 : 19304, 4, 2020/10/14, 14:30:06.017, 5395675236788, testhost.dll, TestRunCache: No test found corresponding to testResult 'PoC.Mutation.Tests.Unit.Tests.UnitTest1.Calculate_ShouldCalculateADiscount(amount: 1, percent: 1, expectedAmount: 0)  Aprovado' in inProgress list.
TpTrace Information: 0 : 19304, 4, 2020/10/14, 14:30:06.017, 5395675237073, testhost.dll, Sending test run statistics
TpTrace Warning: 0 : 19304, 4, 2020/10/14, 14:30:06.017, 5395675238785, testhost.dll, InProgressTests is null
TpTrace Information: 0 : 19304, 4, 2020/10/14, 14:30:06.017, 5395675239281, testhost.dll, Sending test run statistics
TpTrace Warning: 0 : 19304, 4, 2020/10/14, 14:30:06.017, 5395675240940, testhost.dll, InProgressTests is null
TpTrace Warning: 0 : 19304, 4, 2020/10/14, 14:30:06.017, 5395675241302, testhost.dll, TestRunCache: No test found corresponding to testResult 'PoC.Mutation.Tests.Unit.Tests.UnitTest1.Calculate_ShouldCalculateADiscount(amount: 1533,45, percent: 0,2, expectedAmount: 1226,76)  Aprovado' in inProgress list.
TpTrace Information: 0 : 19304, 4, 2020/10/14, 14:30:06.017, 5395675241545, testhost.dll, Sending test run statistics
TpTrace Warning: 0 : 19304, 4, 2020/10/14, 14:30:06.017, 5395675243022, testhost.dll, InProgressTests is null
TpTrace Information: 0 : 19304, 4, 2020/10/14, 14:30:06.017, 5395675243592, testhost.dll, Sending test run statistics
TpTrace Warning: 0 : 19304, 4, 2020/10/14, 14:30:06.018, 5395675247609, testhost.dll, InProgressTests is null
TpTrace Warning: 0 : 19304, 4, 2020/10/14, 14:30:06.018, 5395675248031, testhost.dll, TestRunCache: No test found corresponding to testResult 'PoC.Mutation.Tests.Unit.Tests.UnitTest1.Calculate_WhenAmountIsLessOrEqualZero_ShoudNotCalculateADiscount(amount: -1, percent: 1)  Aprovado' in inProgress list.
TpTrace Information: 0 : 19304, 4, 2020/10/14, 14:30:06.018, 5395675248296, testhost.dll, Sending test run statistics
TpTrace Warning: 0 : 19304, 4, 2020/10/14, 14:30:06.018, 5395675249514, testhost.dll, InProgressTests is null
TpTrace Information: 0 : 19304, 4, 2020/10/14, 14:30:06.018, 5395675249952, testhost.dll, Sending test run statistics
TpTrace Warning: 0 : 19304, 4, 2020/10/14, 14:30:06.018, 5395675251575, testhost.dll, InProgressTests is null
TpTrace Warning: 0 : 19304, 4, 2020/10/14, 14:30:06.018, 5395675251928, testhost.dll, TestRunCache: No test found corresponding to testResult 'PoC.Mutation.Tests.Unit.Tests.UnitTest1.Calculate_WhenAmountIsLessOrEqualZero_ShoudNotCalculateADiscount(amount: 0, percent: 0,2)  Aprovado' in inProgress list.
TpTrace Information: 0 : 19304, 4, 2020/10/14, 14:30:06.018, 5395675252171, testhost.dll, Sending test run statistics
TpTrace Warning: 0 : 19304, 4, 2020/10/14, 14:30:06.018, 5395675253646, testhost.dll, InProgressTests is null
TpTrace Information: 0 : 19304, 4, 2020/10/14, 14:30:06.018, 5395675254180, testhost.dll, Sending test run statistics
TpTrace Warning: 0 : 19304, 4, 2020/10/14, 14:30:06.019, 5395675258164, testhost.dll, InProgressTests is null
TpTrace Warning: 0 : 19304, 4, 2020/10/14, 14:30:06.019, 5395675258589, testhost.dll, TestRunCache: No test found corresponding to testResult 'PoC.Mutation.Tests.Unit.Tests.UnitTest1.Calculate_WhenPercentOfDiscountGreaterThanOne_ShoudNotCalculateADiscount  Aprovado' in inProgress list.
TpTrace Information: 0 : 19304, 4, 2020/10/14, 14:30:06.019, 5395675258853, testhost.dll, Sending test run statistics
TpTrace Warning: 0 : 19304, 4, 2020/10/14, 14:30:06.019, 5395675260074, testhost.dll, InProgressTests is null
TpTrace Information: 0 : 19304, 4, 2020/10/14, 14:30:06.023, 5395675299690, testhost.dll, [xUnit.net 00:00:00.45]   Finished:    PoC.Mutation.Tests.Unit.Tests
TpTrace Information: 0 : 19304, 4, 2020/10/14, 14:30:06.028, 5395675347257, testhost.dll, Sending test run complete
TpTrace Information: 0 : 19304, 9, 2020/10/14, 14:30:06.035, 5395675425858, testhost.dll, TestRequestHandler.ProcessRequests: received message: (TestSession.Terminate) -> null
TpTrace Information: 0 : 19304, 9, 2020/10/14, 14:30:06.036, 5395675426712, testhost.dll, Session End message received from server. Closing the connection.
TpTrace Information: 0 : 19304, 9, 2020/10/14, 14:30:06.036, 5395675428727, testhost.dll, SocketClient.Stop: Stop communication from server endpoint: 127.0.0.1:064314
TpTrace Information: 0 : 19304, 9, 2020/10/14, 14:30:06.036, 5395675429095, testhost.dll, SocketClient: Stop: Cancellation requested. Stopping message loop.
TpTrace Information: 0 : 19304, 1, 2020/10/14, 14:30:06.036, 5395675429188, testhost.dll, SocketClient.Stop: Stop communication from server endpoint: 127.0.0.1:064314
TpTrace Information: 0 : 19304, 1, 2020/10/14, 14:30:06.036, 5395675430697, testhost.dll, SocketClient: Stop: Cancellation requested. Stopping message loop.
TpTrace Information: 0 : 19304, 9, 2020/10/14, 14:30:06.036, 5395675430762, testhost.dll, Closing the connection !
TpTrace Information: 0 : 19304, 1, 2020/10/14, 14:30:06.036, 5395675431502, testhost.dll, Testhost process exiting.
TpTrace Information: 0 : 19304, 9, 2020/10/14, 14:30:06.036, 5395675432590, testhost.dll, SocketClient.PrivateStop: Stop communication from server endpoint: 127.0.0.1:064314, error:
