TpTrace Information: 0 : 7300, 1, 2020/10/14, 14:20:03.550, 5389650580275, testhost.dll, DefaultEngineInvoker.Invoke: Testhost process started with args :[--port, 64127],[--endpoint, 127.0.0.1:064127],[--role, client],[--parentprocessid, 9944],[--diag, C:\Users\guilherme.silva\Documents\source\repos\poc-mutation-tests\tests\PoC.Mutation.Tests.Unit.Tests\StrykerOutput\2020-10-14.14-19-47\logs\VsTest-log.host.20-10-14_14-20-02_59773_9.txt],[--tracelevel, 3],[--telemetryoptedin, false]
TpTrace Information: 0 : 7300, 1, 2020/10/14, 14:20:03.554, 5389650607104, testhost.dll, DefaultEngineInvoker.SetParentProcessExitCallback: Monitoring parent process with id: '9944'
TpTrace Information: 0 : 7300, 1, 2020/10/14, 14:20:03.560, 5389650668033, testhost.dll, DefaultEngineInvoker.GetConnectionInfo: Initialize communication on endpoint address: '127.0.0.1:064127'
TpTrace Information: 0 : 7300, 1, 2020/10/14, 14:20:03.573, 5389650799081, testhost.dll, SocketClient.Start: connecting to server endpoint: 127.0.0.1:064127
TpTrace Information: 0 : 7300, 1, 2020/10/14, 14:20:03.577, 5389650841354, testhost.dll, DefaultEngineInvoker.Invoke: Start Request Processing.
TpTrace Information: 0 : 7300, 9, 2020/10/14, 14:20:03.579, 5389650861720, testhost.dll, SocketClient.OnServerConnected: connected to server endpoint: 127.0.0.1:064127
TpTrace Information: 0 : 7300, 8, 2020/10/14, 14:20:03.581, 5389650879779, testhost.dll, DefaultEngineInvoker.StartProcessingAsync: Connected to vstest.console, Starting process requests.
TpTrace Information: 0 : 7300, 9, 2020/10/14, 14:20:03.682, 5389651894458, testhost.dll, TestRequestHandler.ProcessRequests: received message: (ProtocolVersion) -> 3
TpTrace Information: 0 : 7300, 9, 2020/10/14, 14:20:03.707, 5389652138014, testhost.dll, TestRequestHandler.ProcessRequests: received message: (TestExecution.Initialize) -> [
  "C:\\Users\\guilherme.silva\\Documents\\source\\repos\\poc-mutation-tests\\tests\\PoC.Mutation.Tests.Unit.Tests\\bin\\Debug\\netcoreapp3.1\\xunit.runner.visualstudio.dotnetcore.testadapter.dll"
]
TpTrace Information: 0 : 7300, 9, 2020/10/14, 14:20:03.707, 5389652139123, testhost.dll, Execution Session Initialize.
TpTrace Information: 0 : 7300, 9, 2020/10/14, 14:20:03.714, 5389652206618, testhost.dll, TestRequestHandler.ProcessRequests: received message: (TestExecution.StartWithSources) -> {
  "AdapterSourceMap": {
    "_none_": [
      "C:\\Users\\guilherme.silva\\Documents\\source\\repos\\poc-mutation-tests\\tests\\PoC.Mutation.Tests.Unit.Tests\\bin\\Debug\\netcoreapp3.1\\PoC.Mutation.Tests.Unit.Tests.dll"
    ]
  },
  "RunSettings": "<RunSettings>\r\n  <RunConfiguration>\r\n    <MaxCpuCount>1</MaxCpuCount>\r\n    <TargetFrameworkVersion>.NETCoreApp,Version=v3.1</TargetFrameworkVersion>\r\n    <DisableParallelization>true</DisableParallelization>\r\n    <DesignMode>false</DesignMode>\r\n    <BatchSize>1</BatchSize>\r\n    <TargetPlatform>X64</TargetPlatform>\r\n    <CollectSourceInformation>True</CollectSourceInformation>\r\n  </RunConfiguration>\r\n  <LoggerRunSettings>\r\n    <Loggers>\r\n      <Logger friendlyName=\"Console\" uri=\"logger://microsoft/TestPlatform/ConsoleLogger/v1\" assemblyQualifiedName=\"Microsoft.VisualStudio.TestPlatform.CommandLine.Internal.ConsoleLogger, vstest.console, Version=15.0.0.0, Culture=neutral, PublicKeyToken=b03f5f7f11d50a3a\" codeBase=\"C:\\Users\\guilherme.silva\\AppData\\Local\\Temp\\ddfjkhop.e3u\\.vstest\\tools\\net451\\vstest.console.exe\" enabled=\"True\" />\r\n    </Loggers>\r\n  </LoggerRunSettings>\r\n</RunSettings>",
  "TestExecutionContext": {
    "FrequencyOfRunStatsChangeEvent": 1,
    "RunStatsChangeEventTimeout": "00:00:01.5000000",
    "InIsolation": false,
    "KeepAlive": false,
    "AreTestCaseLevelEventsRequired": false,
    "IsDebug": false,
    "TestCaseFilter": null,
    "FilterOptions": null
  },
  "Package": null
}
TpTrace Information: 0 : 7300, 9, 2020/10/14, 14:20:03.714, 5389652207893, testhost.dll, Execution started.
TpTrace Information: 0 : 7300, 4, 2020/10/14, 14:20:03.719, 5389652256005, testhost.dll, AssemblyResolver.ctor: Creating AssemblyResolver with searchDirectories C:\Users\guilherme.silva\Documents\source\repos\poc-mutation-tests\tests\PoC.Mutation.Tests.Unit.Tests\bin\Debug\netcoreapp3.1
TpTrace Information: 0 : 7300, 4, 2020/10/14, 14:20:03.721, 5389652278065, testhost.dll, AssemblyResolver.AddSearchDirectories: Adding more searchDirectories C:\Users\guilherme.silva\Documents\source\repos\poc-mutation-tests\tests\PoC.Mutation.Tests.Unit.Tests\bin\Debug\netcoreapp3.1
TpTrace Information: 0 : 7300, 4, 2020/10/14, 14:20:03.724, 5389652312784, testhost.dll, AssemblyResolver.OnResolve: xunit.runner.visualstudio.dotnetcore.testadapter: Resolving assembly.
TpTrace Information: 0 : 7300, 4, 2020/10/14, 14:20:03.726, 5389652326590, testhost.dll, AssemblyResolver.OnResolve: Resolved assembly: xunit.runner.visualstudio.dotnetcore.testadapter, from path: C:\Users\guilherme.silva\Documents\source\repos\poc-mutation-tests\tests\PoC.Mutation.Tests.Unit.Tests\bin\Debug\netcoreapp3.1\xunit.runner.visualstudio.dotnetcore.testadapter.dll
TpTrace Information: 0 : 7300, 4, 2020/10/14, 14:20:03.728, 5389652350007, testhost.dll, AssemblyResolver.OnResolve: xunit.runner.utility.netcoreapp10: Resolving assembly.
TpTrace Information: 0 : 7300, 4, 2020/10/14, 14:20:03.729, 5389652356067, testhost.dll, AssemblyResolver.OnResolve: Resolved assembly: xunit.runner.utility.netcoreapp10, from path: C:\Users\guilherme.silva\Documents\source\repos\poc-mutation-tests\tests\PoC.Mutation.Tests.Unit.Tests\bin\Debug\netcoreapp3.1\xunit.runner.utility.netcoreapp10.dll
TpTrace Information: 0 : 7300, 4, 2020/10/14, 14:20:03.737, 5389652439189, testhost.dll, TestPluginManager.CreateTestExtension: Attempting to load test extension: Xunit.Runner.VisualStudio.VsTestRunner
TpTrace Information: 0 : 7300, 4, 2020/10/14, 14:20:03.738, 5389652448336, testhost.dll, AssemblyResolver.AddSearchDirectories: Adding more searchDirectories C:\Users\guilherme.silva\Documents\source\repos\poc-mutation-tests\tests\PoC.Mutation.Tests.Unit.Tests\bin\Debug\netcoreapp3.1
TpTrace Information: 0 : 7300, 4, 2020/10/14, 14:20:03.738, 5389652449414, testhost.dll, AssemblyResolver.AddSearchDirectories: Adding more searchDirectories C:\Users\guilherme.silva\Documents\source\repos\poc-mutation-tests\tests\PoC.Mutation.Tests.Unit.Tests\bin\Debug\netcoreapp3.1
TpTrace Information: 0 : 7300, 4, 2020/10/14, 14:20:03.739, 5389652456811, testhost.dll, TestExecutorService: Loaded the extensions
TpTrace Information: 0 : 7300, 4, 2020/10/14, 14:20:03.788, 5389652948846, testhost.dll, TestDiscoveryManager: Discovering tests from sources C:\Users\guilherme.silva\Documents\source\repos\poc-mutation-tests\tests\PoC.Mutation.Tests.Unit.Tests\bin\Debug\netcoreapp3.1\PoC.Mutation.Tests.Unit.Tests.dll
TpTrace Information: 0 : 7300, 4, 2020/10/14, 14:20:03.790, 5389652967662, testhost.dll, AssemblyResolver.AddSearchDirectories: Adding more searchDirectories C:\Users\guilherme.silva\Documents\source\repos\poc-mutation-tests\tests\PoC.Mutation.Tests.Unit.Tests\bin\Debug\netcoreapp3.1
TpTrace Information: 0 : 7300, 4, 2020/10/14, 14:20:03.790, 5389652968310, testhost.dll, AssemblyResolver.AddSearchDirectories: Adding more searchDirectories C:\Users\guilherme.silva\Documents\source\repos\poc-mutation-tests\tests\PoC.Mutation.Tests.Unit.Tests\bin\Debug\netcoreapp3.1
TpTrace Information: 0 : 7300, 4, 2020/10/14, 14:20:03.792, 5389652989877, testhost.dll, AssemblyResolver.OnResolve: System.ComponentModel.Primitives.resources: Resolving assembly.
TpTrace Information: 0 : 7300, 4, 2020/10/14, 14:20:03.792, 5389652991168, testhost.dll, AssemblyResolver.OnResolve: System.ComponentModel.Primitives.resources: Failed to load assembly.
TpTrace Information: 0 : 7300, 4, 2020/10/14, 14:20:03.792, 5389652994094, testhost.dll, AssemblyResolver.OnResolve: System.ComponentModel.Primitives.resources: Resolving assembly.
TpTrace Information: 0 : 7300, 4, 2020/10/14, 14:20:03.793, 5389652994560, testhost.dll, AssemblyResolver.OnResolve: System.ComponentModel.Primitives.resources: Resolved from cache.
TpTrace Information: 0 : 7300, 4, 2020/10/14, 14:20:03.793, 5389653003681, testhost.dll, AssemblyResolver.OnResolve: System.ComponentModel.Primitives.resources: Resolving assembly.
TpTrace Information: 0 : 7300, 4, 2020/10/14, 14:20:03.793, 5389653004116, testhost.dll, AssemblyResolver.OnResolve: System.ComponentModel.Primitives.resources: Resolved from cache.
TpTrace Information: 0 : 7300, 4, 2020/10/14, 14:20:03.800, 5389653070413, testhost.dll, PEReaderHelper.GetAssemblyType: Determined assemblyType:'Managed' for source: 'C:\Users\guilherme.silva\Documents\source\repos\poc-mutation-tests\tests\PoC.Mutation.Tests.Unit.Tests\bin\Debug\netcoreapp3.1\PoC.Mutation.Tests.Unit.Tests.dll'
TpTrace Information: 0 : 7300, 4, 2020/10/14, 14:20:03.808, 5389653145538, testhost.dll, [xUnit.net 00:00:00.00] xUnit.net VSTest Adapter v2.4.0 (64-bit .NET Core 3.1.8)
TpTrace Information: 0 : 7300, 4, 2020/10/14, 14:20:04.096, 5389656034451, testhost.dll, AssemblyResolver.OnResolve: xunit.runner.reporters.netcoreapp10: Resolving assembly.
TpTrace Information: 0 : 7300, 4, 2020/10/14, 14:20:04.097, 5389656041424, testhost.dll, AssemblyResolver.OnResolve: Resolved assembly: xunit.runner.reporters.netcoreapp10, from path: C:\Users\guilherme.silva\Documents\source\repos\poc-mutation-tests\tests\PoC.Mutation.Tests.Unit.Tests\bin\Debug\netcoreapp3.1\xunit.runner.reporters.netcoreapp10.dll
TpTrace Information: 0 : 7300, 4, 2020/10/14, 14:20:04.145, 5389656515826, testhost.dll, [xUnit.net 00:00:00.34]   Discovering: PoC.Mutation.Tests.Unit.Tests
TpTrace Information: 0 : 7300, 4, 2020/10/14, 14:20:04.189, 5389656956297, testhost.dll, [xUnit.net 00:00:00.38]   Discovered:  PoC.Mutation.Tests.Unit.Tests
TpTrace Information: 0 : 7300, 4, 2020/10/14, 14:20:04.191, 5389656976406, testhost.dll, [xUnit.net 00:00:00.38]   Starting:    PoC.Mutation.Tests.Unit.Tests
TpTrace Information: 0 : 7300, 4, 2020/10/14, 14:20:04.224, 5389657307288, testhost.dll, Sending test run statistics
TpTrace Warning: 0 : 7300, 4, 2020/10/14, 14:20:04.262, 5389657686389, testhost.dll, InProgressTests is null
TpTrace Warning: 0 : 7300, 4, 2020/10/14, 14:20:04.270, 5389657770585, testhost.dll, TestRunCache: No test found corresponding to testResult 'PoC.Mutation.Tests.Unit.Tests.UnitTest1.Calculate_ShouldCalculateADiscount(amount: 1, percent: 1, expectedAmount: 0)  Aprovado' in inProgress list.
TpTrace Information: 0 : 7300, 4, 2020/10/14, 14:20:04.270, 5389657771535, testhost.dll, Sending test run statistics
TpTrace Warning: 0 : 7300, 4, 2020/10/14, 14:20:04.277, 5389657835398, testhost.dll, InProgressTests is null
TpTrace Information: 0 : 7300, 4, 2020/10/14, 14:20:04.277, 5389657838182, testhost.dll, Sending test run statistics
TpTrace Warning: 0 : 7300, 4, 2020/10/14, 14:20:04.277, 5389657841071, testhost.dll, InProgressTests is null
TpTrace Warning: 0 : 7300, 4, 2020/10/14, 14:20:04.277, 5389657841515, testhost.dll, TestRunCache: No test found corresponding to testResult 'PoC.Mutation.Tests.Unit.Tests.UnitTest1.Calculate_ShouldCalculateADiscount(amount: 1533,45, percent: 0,2, expectedAmount: 1226,76)  Aprovado' in inProgress list.
TpTrace Information: 0 : 7300, 4, 2020/10/14, 14:20:04.277, 5389657841792, testhost.dll, Sending test run statistics
TpTrace Warning: 0 : 7300, 4, 2020/10/14, 14:20:04.277, 5389657843398, testhost.dll, InProgressTests is null
TpTrace Information: 0 : 7300, 4, 2020/10/14, 14:20:04.278, 5389657845551, testhost.dll, Sending test run statistics
TpTrace Warning: 0 : 7300, 4, 2020/10/14, 14:20:04.279, 5389657858068, testhost.dll, InProgressTests is null
TpTrace Warning: 0 : 7300, 4, 2020/10/14, 14:20:04.279, 5389657858783, testhost.dll, TestRunCache: No test found corresponding to testResult 'PoC.Mutation.Tests.Unit.Tests.UnitTest1.Calculate_WhenAmountIsLessOrEqualZero_ShoudNotCalculateADiscount(amount: -1, percent: 1)  Aprovado' in inProgress list.
TpTrace Information: 0 : 7300, 4, 2020/10/14, 14:20:04.279, 5389657859087, testhost.dll, Sending test run statistics
TpTrace Warning: 0 : 7300, 4, 2020/10/14, 14:20:04.279, 5389657861197, testhost.dll, InProgressTests is null
TpTrace Information: 0 : 7300, 4, 2020/10/14, 14:20:04.279, 5389657862021, testhost.dll, Sending test run statistics
TpTrace Warning: 0 : 7300, 4, 2020/10/14, 14:20:04.279, 5389657864334, testhost.dll, InProgressTests is null
TpTrace Warning: 0 : 7300, 4, 2020/10/14, 14:20:04.280, 5389657864731, testhost.dll, TestRunCache: No test found corresponding to testResult 'PoC.Mutation.Tests.Unit.Tests.UnitTest1.Calculate_WhenAmountIsLessOrEqualZero_ShoudNotCalculateADiscount(amount: 0, percent: 0,2)  Aprovado' in inProgress list.
TpTrace Information: 0 : 7300, 4, 2020/10/14, 14:20:04.280, 5389657865002, testhost.dll, Sending test run statistics
TpTrace Warning: 0 : 7300, 4, 2020/10/14, 14:20:04.280, 5389657866929, testhost.dll, InProgressTests is null
TpTrace Information: 0 : 7300, 4, 2020/10/14, 14:20:04.284, 5389657910061, testhost.dll, [xUnit.net 00:00:00.48]   Finished:    PoC.Mutation.Tests.Unit.Tests
TpTrace Information: 0 : 7300, 4, 2020/10/14, 14:20:04.289, 5389657956616, testhost.dll, Sending test run complete
TpTrace Information: 0 : 7300, 9, 2020/10/14, 14:20:04.297, 5389658040672, testhost.dll, TestRequestHandler.ProcessRequests: received message: (TestSession.Terminate) -> null
TpTrace Information: 0 : 7300, 9, 2020/10/14, 14:20:04.297, 5389658041835, testhost.dll, Session End message received from server. Closing the connection.
TpTrace Information: 0 : 7300, 9, 2020/10/14, 14:20:04.297, 5389658043933, testhost.dll, SocketClient.Stop: Stop communication from server endpoint: 127.0.0.1:064127
TpTrace Information: 0 : 7300, 9, 2020/10/14, 14:20:04.297, 5389658044310, testhost.dll, SocketClient: Stop: Cancellation requested. Stopping message loop.
TpTrace Information: 0 : 7300, 1, 2020/10/14, 14:20:04.297, 5389658044356, testhost.dll, SocketClient.Stop: Stop communication from server endpoint: 127.0.0.1:064127
TpTrace Information: 0 : 7300, 1, 2020/10/14, 14:20:04.298, 5389658045123, testhost.dll, SocketClient: Stop: Cancellation requested. Stopping message loop.
TpTrace Information: 0 : 7300, 9, 2020/10/14, 14:20:04.298, 5389658045631, testhost.dll, Closing the connection !
TpTrace Information: 0 : 7300, 1, 2020/10/14, 14:20:04.298, 5389658046154, testhost.dll, Testhost process exiting.
TpTrace Information: 0 : 7300, 9, 2020/10/14, 14:20:04.298, 5389658047184, testhost.dll, SocketClient.PrivateStop: Stop communication from server endpoint: 127.0.0.1:064127, error:
