TpTrace Information: 0 : 26560, 1, 2020/10/14, 14:20:05.899, 5389674070046, testhost.dll, DefaultEngineInvoker.Invoke: Testhost process started with args :[--port, 64129],[--endpoint, 127.0.0.1:064129],[--role, client],[--parentprocessid, 9944],[--diag, C:\Users\guilherme.silva\Documents\source\repos\poc-mutation-tests\tests\PoC.Mutation.Tests.Unit.Tests\StrykerOutput\2020-10-14.14-19-47\logs\VsTest-log.host.20-10-14_14-20-05_77488_7.txt],[--tracelevel, 3],[--telemetryoptedin, false]
TpTrace Information: 0 : 26560, 1, 2020/10/14, 14:20:05.903, 5389674099322, testhost.dll, DefaultEngineInvoker.SetParentProcessExitCallback: Monitoring parent process with id: '9944'
TpTrace Information: 0 : 26560, 1, 2020/10/14, 14:20:05.910, 5389674168977, testhost.dll, DefaultEngineInvoker.GetConnectionInfo: Initialize communication on endpoint address: '127.0.0.1:064129'
TpTrace Information: 0 : 26560, 1, 2020/10/14, 14:20:05.923, 5389674302036, testhost.dll, SocketClient.Start: connecting to server endpoint: 127.0.0.1:064129
TpTrace Information: 0 : 26560, 1, 2020/10/14, 14:20:05.927, 5389674342869, testhost.dll, DefaultEngineInvoker.Invoke: Start Request Processing.
TpTrace Information: 0 : 26560, 9, 2020/10/14, 14:20:05.929, 5389674358545, testhost.dll, SocketClient.OnServerConnected: connected to server endpoint: 127.0.0.1:064129
TpTrace Information: 0 : 26560, 8, 2020/10/14, 14:20:05.930, 5389674373645, testhost.dll, DefaultEngineInvoker.StartProcessingAsync: Connected to vstest.console, Starting process requests.
TpTrace Information: 0 : 26560, 9, 2020/10/14, 14:20:06.035, 5389675416138, testhost.dll, TestRequestHandler.ProcessRequests: received message: (ProtocolVersion) -> 3
TpTrace Information: 0 : 26560, 9, 2020/10/14, 14:20:06.060, 5389675664836, testhost.dll, TestRequestHandler.ProcessRequests: received message: (TestExecution.Initialize) -> [
  "C:\\Users\\guilherme.silva\\Documents\\source\\repos\\poc-mutation-tests\\tests\\PoC.Mutation.Tests.Unit.Tests\\bin\\Debug\\netcoreapp3.1\\xunit.runner.visualstudio.dotnetcore.testadapter.dll"
]
TpTrace Information: 0 : 26560, 9, 2020/10/14, 14:20:06.060, 5389675665852, testhost.dll, Execution Session Initialize.
TpTrace Information: 0 : 26560, 9, 2020/10/14, 14:20:06.067, 5389675735878, testhost.dll, TestRequestHandler.ProcessRequests: received message: (TestExecution.StartWithSources) -> {
  "AdapterSourceMap": {
    "_none_": [
      "C:\\Users\\guilherme.silva\\Documents\\source\\repos\\poc-mutation-tests\\tests\\PoC.Mutation.Tests.Unit.Tests\\bin\\Debug\\netcoreapp3.1\\PoC.Mutation.Tests.Unit.Tests.dll"
    ]
  },
  "RunSettings": "<RunSettings>\r\n  <RunConfiguration>\r\n    <MaxCpuCount>1</MaxCpuCount>\r\n    <TargetFrameworkVersion>.NETCoreApp,Version=v3.1</TargetFrameworkVersion>\r\n    <DisableParallelization>true</DisableParallelization>\r\n    <DesignMode>false</DesignMode>\r\n    <BatchSize>1</BatchSize>\r\n    <TargetPlatform>X64</TargetPlatform>\r\n    <CollectSourceInformation>True</CollectSourceInformation>\r\n  </RunConfiguration>\r\n  <InProcDataCollectionRunSettings>\r\n    <InProcDataCollectors>\r\n      <InProcDataCollector friendlyName=\"StrykerCoverage\" uri=\"https://stryker-mutator.io/\" codebase=\"C:\\Users\\guilherme.silva\\.dotnet\\tools\\.store\\dotnet-stryker\\0.19.0\\dotnet-stryker\\0.19.0\\tools\\netcoreapp3.1\\any\\Stryker.DataCollector.dll\" assemblyQualifiedName=\"Stryker.DataCollector.CoverageCollector, Stryker.DataCollector, Version=0.16.1.0, Culture=neutral, PublicKeyToken=null\">\r\n        <Configuration>\r\n          <Parameters>\r\n            <Coverage />\r\n            <MutantControl name=\"StrykerezZz6QuuvwTU3CQ.MutantControl\" />\r\n          </Parameters>\r\n        </Configuration>\r\n      </InProcDataCollector>\r\n    </InProcDataCollectors>\r\n  </InProcDataCollectionRunSettings>\r\n  <LoggerRunSettings>\r\n    <Loggers>\r\n      <Logger friendlyName=\"Console\" uri=\"logger://microsoft/TestPlatform/ConsoleLogger/v1\" assemblyQualifiedName=\"Microsoft.VisualStudio.TestPlatform.CommandLine.Internal.ConsoleLogger, vstest.console, Version=15.0.0.0, Culture=neutral, PublicKeyToken=b03f5f7f11d50a3a\" codeBase=\"C:\\Users\\guilherme.silva\\AppData\\Local\\Temp\\ddfjkhop.e3u\\.vstest\\tools\\net451\\vstest.console.exe\" enabled=\"True\" />\r\n    </Loggers>\r\n  </LoggerRunSettings>\r\n</RunSettings>",
  "TestExecutionContext": {
    "FrequencyOfRunStatsChangeEvent": 1,
    "RunStatsChangeEventTimeout": "00:00:01.5000000",
    "InIsolation": false,
    "KeepAlive": false,
    "AreTestCaseLevelEventsRequired": false,
    "IsDebug": false,
    "TestCaseFilter": null,
    "FilterOptions": null
  },
  "Package": null
}
TpTrace Information: 0 : 26560, 9, 2020/10/14, 14:20:06.067, 5389675737503, testhost.dll, Execution started.
TpTrace Information: 0 : 26560, 4, 2020/10/14, 14:20:06.071, 5389675784061, testhost.dll, AssemblyResolver.ctor: Creating AssemblyResolver with searchDirectories C:\Users\guilherme.silva\Documents\source\repos\poc-mutation-tests\tests\PoC.Mutation.Tests.Unit.Tests\bin\Debug\netcoreapp3.1
TpTrace Information: 0 : 26560, 4, 2020/10/14, 14:20:06.074, 5389675806408, testhost.dll, AssemblyResolver.AddSearchDirectories: Adding more searchDirectories C:\Users\guilherme.silva\Documents\source\repos\poc-mutation-tests\tests\PoC.Mutation.Tests.Unit.Tests\bin\Debug\netcoreapp3.1
TpTrace Information: 0 : 26560, 4, 2020/10/14, 14:20:06.077, 5389675843436, testhost.dll, AssemblyResolver.OnResolve: xunit.runner.visualstudio.dotnetcore.testadapter: Resolving assembly.
TpTrace Information: 0 : 26560, 4, 2020/10/14, 14:20:06.079, 5389675859170, testhost.dll, AssemblyResolver.OnResolve: Resolved assembly: xunit.runner.visualstudio.dotnetcore.testadapter, from path: C:\Users\guilherme.silva\Documents\source\repos\poc-mutation-tests\tests\PoC.Mutation.Tests.Unit.Tests\bin\Debug\netcoreapp3.1\xunit.runner.visualstudio.dotnetcore.testadapter.dll
TpTrace Information: 0 : 26560, 4, 2020/10/14, 14:20:06.081, 5389675882914, testhost.dll, AssemblyResolver.OnResolve: xunit.runner.utility.netcoreapp10: Resolving assembly.
TpTrace Information: 0 : 26560, 4, 2020/10/14, 14:20:06.082, 5389675889158, testhost.dll, AssemblyResolver.OnResolve: Resolved assembly: xunit.runner.utility.netcoreapp10, from path: C:\Users\guilherme.silva\Documents\source\repos\poc-mutation-tests\tests\PoC.Mutation.Tests.Unit.Tests\bin\Debug\netcoreapp3.1\xunit.runner.utility.netcoreapp10.dll
TpTrace Information: 0 : 26560, 4, 2020/10/14, 14:20:06.090, 5389675970518, testhost.dll, TestPluginManager.CreateTestExtension: Attempting to load test extension: Xunit.Runner.VisualStudio.VsTestRunner
TpTrace Information: 0 : 26560, 4, 2020/10/14, 14:20:06.091, 5389675980315, testhost.dll, AssemblyResolver.AddSearchDirectories: Adding more searchDirectories C:\Users\guilherme.silva\Documents\source\repos\poc-mutation-tests\tests\PoC.Mutation.Tests.Unit.Tests\bin\Debug\netcoreapp3.1
TpTrace Information: 0 : 26560, 4, 2020/10/14, 14:20:06.091, 5389675981392, testhost.dll, AssemblyResolver.AddSearchDirectories: Adding more searchDirectories C:\Users\guilherme.silva\Documents\source\repos\poc-mutation-tests\tests\PoC.Mutation.Tests.Unit.Tests\bin\Debug\netcoreapp3.1
TpTrace Information: 0 : 26560, 4, 2020/10/14, 14:20:06.092, 5389675989008, testhost.dll, TestExecutorService: Loaded the extensions
TpTrace Information: 0 : 26560, 4, 2020/10/14, 14:20:06.185, 5389676918666, testhost.dll, TestDiscoveryManager: Discovering tests from sources C:\Users\guilherme.silva\Documents\source\repos\poc-mutation-tests\tests\PoC.Mutation.Tests.Unit.Tests\bin\Debug\netcoreapp3.1\PoC.Mutation.Tests.Unit.Tests.dll
TpTrace Information: 0 : 26560, 4, 2020/10/14, 14:20:06.187, 5389676937349, testhost.dll, AssemblyResolver.AddSearchDirectories: Adding more searchDirectories C:\Users\guilherme.silva\Documents\source\repos\poc-mutation-tests\tests\PoC.Mutation.Tests.Unit.Tests\bin\Debug\netcoreapp3.1
TpTrace Information: 0 : 26560, 4, 2020/10/14, 14:20:06.187, 5389676938534, testhost.dll, AssemblyResolver.AddSearchDirectories: Adding more searchDirectories C:\Users\guilherme.silva\Documents\source\repos\poc-mutation-tests\tests\PoC.Mutation.Tests.Unit.Tests\bin\Debug\netcoreapp3.1
TpTrace Information: 0 : 26560, 4, 2020/10/14, 14:20:06.190, 5389676967417, testhost.dll, AssemblyResolver.OnResolve: System.ComponentModel.Primitives.resources: Resolving assembly.
TpTrace Information: 0 : 26560, 4, 2020/10/14, 14:20:06.190, 5389676969477, testhost.dll, AssemblyResolver.OnResolve: System.ComponentModel.Primitives.resources: Failed to load assembly.
TpTrace Information: 0 : 26560, 4, 2020/10/14, 14:20:06.190, 5389676972876, testhost.dll, AssemblyResolver.OnResolve: System.ComponentModel.Primitives.resources: Resolving assembly.
TpTrace Information: 0 : 26560, 4, 2020/10/14, 14:20:06.190, 5389676973346, testhost.dll, AssemblyResolver.OnResolve: System.ComponentModel.Primitives.resources: Resolved from cache.
TpTrace Information: 0 : 26560, 4, 2020/10/14, 14:20:06.191, 5389676983713, testhost.dll, AssemblyResolver.OnResolve: System.ComponentModel.Primitives.resources: Resolving assembly.
TpTrace Information: 0 : 26560, 4, 2020/10/14, 14:20:06.191, 5389676984159, testhost.dll, AssemblyResolver.OnResolve: System.ComponentModel.Primitives.resources: Resolved from cache.
TpTrace Information: 0 : 26560, 4, 2020/10/14, 14:20:06.211, 5389677180111, testhost.dll, PEReaderHelper.GetAssemblyType: Determined assemblyType:'Managed' for source: 'C:\Users\guilherme.silva\Documents\source\repos\poc-mutation-tests\tests\PoC.Mutation.Tests.Unit.Tests\bin\Debug\netcoreapp3.1\PoC.Mutation.Tests.Unit.Tests.dll'
TpTrace Information: 0 : 26560, 4, 2020/10/14, 14:20:06.219, 5389677256096, testhost.dll, [xUnit.net 00:00:00.00] xUnit.net VSTest Adapter v2.4.0 (64-bit .NET Core 3.1.8)
TpTrace Information: 0 : 26560, 4, 2020/10/14, 14:20:06.467, 5389679742561, testhost.dll, AssemblyResolver.OnResolve: xunit.runner.reporters.netcoreapp10: Resolving assembly.
TpTrace Information: 0 : 26560, 4, 2020/10/14, 14:20:06.468, 5389679748059, testhost.dll, AssemblyResolver.OnResolve: Resolved assembly: xunit.runner.reporters.netcoreapp10, from path: C:\Users\guilherme.silva\Documents\source\repos\poc-mutation-tests\tests\PoC.Mutation.Tests.Unit.Tests\bin\Debug\netcoreapp3.1\xunit.runner.reporters.netcoreapp10.dll
TpTrace Information: 0 : 26560, 4, 2020/10/14, 14:20:06.515, 5389680214509, testhost.dll, [xUnit.net 00:00:00.29]   Discovering: PoC.Mutation.Tests.Unit.Tests
TpTrace Information: 0 : 26560, 4, 2020/10/14, 14:20:06.560, 5389680672588, testhost.dll, [xUnit.net 00:00:00.34]   Discovered:  PoC.Mutation.Tests.Unit.Tests
TpTrace Information: 0 : 26560, 4, 2020/10/14, 14:20:06.562, 5389680693307, testhost.dll, [xUnit.net 00:00:00.34]   Starting:    PoC.Mutation.Tests.Unit.Tests
TpTrace Information: 0 : 26560, 4, 2020/10/14, 14:20:06.597, 5389681042452, testhost.dll, Sending test run statistics
TpTrace Warning: 0 : 26560, 4, 2020/10/14, 14:20:06.638, 5389681452927, testhost.dll, InProgressTests is null
TpTrace Warning: 0 : 26560, 4, 2020/10/14, 14:20:06.640, 5389681471320, testhost.dll, TestRunCache: No test found corresponding to testResult 'PoC.Mutation.Tests.Unit.Tests.UnitTest1.Calculate_ShouldCalculateADiscount(amount: 1, percent: 1, expectedAmount: 0)  Aprovado' in inProgress list.
TpTrace Information: 0 : 26560, 4, 2020/10/14, 14:20:06.640, 5389681471959, testhost.dll, Sending test run statistics
TpTrace Warning: 0 : 26560, 4, 2020/10/14, 14:20:06.653, 5389681600320, testhost.dll, InProgressTests is null
TpTrace Information: 0 : 26560, 4, 2020/10/14, 14:20:06.653, 5389681602545, testhost.dll, Sending test run statistics
TpTrace Warning: 0 : 26560, 4, 2020/10/14, 14:20:06.654, 5389681606909, testhost.dll, InProgressTests is null
TpTrace Warning: 0 : 26560, 4, 2020/10/14, 14:20:06.654, 5389681607573, testhost.dll, TestRunCache: No test found corresponding to testResult 'PoC.Mutation.Tests.Unit.Tests.UnitTest1.Calculate_ShouldCalculateADiscount(amount: 1533,45, percent: 0,2, expectedAmount: 1226,76)  Aprovado' in inProgress list.
TpTrace Information: 0 : 26560, 4, 2020/10/14, 14:20:06.654, 5389681607861, testhost.dll, Sending test run statistics
TpTrace Warning: 0 : 26560, 4, 2020/10/14, 14:20:06.654, 5389681610051, testhost.dll, InProgressTests is null
TpTrace Information: 0 : 26560, 4, 2020/10/14, 14:20:06.654, 5389681612635, testhost.dll, Sending test run statistics
TpTrace Warning: 0 : 26560, 4, 2020/10/14, 14:20:06.656, 5389681625134, testhost.dll, InProgressTests is null
TpTrace Warning: 0 : 26560, 4, 2020/10/14, 14:20:06.656, 5389681625627, testhost.dll, TestRunCache: No test found corresponding to testResult 'PoC.Mutation.Tests.Unit.Tests.UnitTest1.Calculate_WhenAmountIsLessOrEqualZero_ShoudNotCalculateADiscount(amount: -1, percent: 1)  Aprovado' in inProgress list.
TpTrace Information: 0 : 26560, 4, 2020/10/14, 14:20:06.656, 5389681625899, testhost.dll, Sending test run statistics
TpTrace Warning: 0 : 26560, 4, 2020/10/14, 14:20:06.656, 5389681627395, testhost.dll, InProgressTests is null
TpTrace Information: 0 : 26560, 4, 2020/10/14, 14:20:06.656, 5389681627845, testhost.dll, Sending test run statistics
TpTrace Warning: 0 : 26560, 4, 2020/10/14, 14:20:06.656, 5389681629806, testhost.dll, InProgressTests is null
TpTrace Warning: 0 : 26560, 4, 2020/10/14, 14:20:06.656, 5389681630167, testhost.dll, TestRunCache: No test found corresponding to testResult 'PoC.Mutation.Tests.Unit.Tests.UnitTest1.Calculate_WhenAmountIsLessOrEqualZero_ShoudNotCalculateADiscount(amount: 0, percent: 0,2)  Aprovado' in inProgress list.
TpTrace Information: 0 : 26560, 4, 2020/10/14, 14:20:06.656, 5389681630635, testhost.dll, Sending test run statistics
TpTrace Warning: 0 : 26560, 4, 2020/10/14, 14:20:06.656, 5389681632049, testhost.dll, InProgressTests is null
TpTrace Information: 0 : 26560, 4, 2020/10/14, 14:20:06.661, 5389681674522, testhost.dll, [xUnit.net 00:00:00.44]   Finished:    PoC.Mutation.Tests.Unit.Tests
TpTrace Information: 0 : 26560, 4, 2020/10/14, 14:20:06.667, 5389681735981, testhost.dll, Sending test run complete
TpTrace Information: 0 : 26560, 9, 2020/10/14, 14:20:06.673, 5389681801654, testhost.dll, TestRequestHandler.ProcessRequests: received message: (TestSession.Terminate) -> null
TpTrace Information: 0 : 26560, 9, 2020/10/14, 14:20:06.673, 5389681802372, testhost.dll, Session End message received from server. Closing the connection.
TpTrace Information: 0 : 26560, 9, 2020/10/14, 14:20:06.673, 5389681804287, testhost.dll, SocketClient.Stop: Stop communication from server endpoint: 127.0.0.1:064129
TpTrace Information: 0 : 26560, 1, 2020/10/14, 14:20:06.673, 5389681804401, testhost.dll, SocketClient.Stop: Stop communication from server endpoint: 127.0.0.1:064129
TpTrace Information: 0 : 26560, 1, 2020/10/14, 14:20:06.674, 5389681804980, testhost.dll, SocketClient: Stop: Cancellation requested. Stopping message loop.
TpTrace Information: 0 : 26560, 9, 2020/10/14, 14:20:06.674, 5389681805300, testhost.dll, SocketClient: Stop: Cancellation requested. Stopping message loop.
TpTrace Information: 0 : 26560, 1, 2020/10/14, 14:20:06.674, 5389681806288, testhost.dll, Testhost process exiting.
TpTrace Information: 0 : 26560, 9, 2020/10/14, 14:20:06.674, 5389681806519, testhost.dll, Closing the connection !
TpTrace Information: 0 : 26560, 9, 2020/10/14, 14:20:06.674, 5389681808318, testhost.dll, SocketClient.PrivateStop: Stop communication from server endpoint: 127.0.0.1:064129, error:
