TpTrace Information: 0 : 18196, 1, 2020/10/14, 14:19:58.242, 5389597493234, testhost.dll, DefaultEngineInvoker.Invoke: Testhost process started with args :[--port, 64117],[--endpoint, 127.0.0.1:064117],[--role, client],[--parentprocessid, 12564],[--diag, C:\Users\guilherme.silva\Documents\source\repos\poc-mutation-tests\tests\PoC.Mutation.Tests.Unit.Tests\StrykerOutput\2020-10-14.14-19-47\logs\VsTest-log.host.20-10-14_14-19-57_97018_6.txt],[--tracelevel, 3],[--telemetryoptedin, false]
TpTrace Information: 0 : 18196, 1, 2020/10/14, 14:19:58.244, 5389597513272, testhost.dll, DefaultEngineInvoker.SetParentProcessExitCallback: Monitoring parent process with id: '12564'
TpTrace Information: 0 : 18196, 1, 2020/10/14, 14:19:58.255, 5389597615944, testhost.dll, DefaultEngineInvoker.GetConnectionInfo: Initialize communication on endpoint address: '127.0.0.1:064117'
TpTrace Information: 0 : 18196, 1, 2020/10/14, 14:19:58.267, 5389597739073, testhost.dll, SocketClient.Start: connecting to server endpoint: 127.0.0.1:064117
TpTrace Information: 0 : 18196, 1, 2020/10/14, 14:19:58.271, 5389597778881, testhost.dll, DefaultEngineInvoker.Invoke: Start Request Processing.
TpTrace Information: 0 : 18196, 5, 2020/10/14, 14:19:58.272, 5389597792154, testhost.dll, SocketClient.OnServerConnected: connected to server endpoint: 127.0.0.1:064117
TpTrace Information: 0 : 18196, 9, 2020/10/14, 14:19:58.274, 5389597806987, testhost.dll, DefaultEngineInvoker.StartProcessingAsync: Connected to vstest.console, Starting process requests.
TpTrace Information: 0 : 18196, 5, 2020/10/14, 14:19:58.371, 5389598782517, testhost.dll, TestRequestHandler.ProcessRequests: received message: (ProtocolVersion) -> 3
TpTrace Information: 0 : 18196, 5, 2020/10/14, 14:19:58.405, 5389599115044, testhost.dll, TestRequestHandler.ProcessRequests: received message: (TestDiscovery.Initialize) -> [
  "C:\\Users\\guilherme.silva\\Documents\\source\\repos\\poc-mutation-tests\\tests\\PoC.Mutation.Tests.Unit.Tests\\bin\\Debug\\netcoreapp3.1\\xunit.runner.visualstudio.dotnetcore.testadapter.dll"
]
TpTrace Information: 0 : 18196, 5, 2020/10/14, 14:19:58.405, 5389599116126, testhost.dll, Discovery Session Initialize.
TpTrace Information: 0 : 18196, 5, 2020/10/14, 14:19:58.411, 5389599177840, testhost.dll, TestRequestHandler.ProcessRequests: received message: (TestDiscovery.Start) -> {
  "Package": null,
  "AdapterSourceMap": {
    "_none_": [
      "C:\\Users\\guilherme.silva\\Documents\\source\\repos\\poc-mutation-tests\\tests\\PoC.Mutation.Tests.Unit.Tests\\bin\\Debug\\netcoreapp3.1\\PoC.Mutation.Tests.Unit.Tests.dll"
    ]
  },
  "FrequencyOfDiscoveredTestsEvent": 1,
  "DiscoveredTestEventTimeout": "00:00:01.5000000",
  "RunSettings": "<RunSettings>\r\n  <RunConfiguration>\r\n    <MaxCpuCount>1</MaxCpuCount>\r\n    <TargetFrameworkVersion>.NETCoreApp,Version=v3.1</TargetFrameworkVersion>\r\n    <DesignMode>false</DesignMode>\r\n    <BatchSize>1</BatchSize>\r\n    <TargetPlatform>X64</TargetPlatform>\r\n    <CollectSourceInformation>True</CollectSourceInformation>\r\n  </RunConfiguration>\r\n  <LoggerRunSettings>\r\n    <Loggers>\r\n      <Logger friendlyName=\"Console\" uri=\"logger://microsoft/TestPlatform/ConsoleLogger/v1\" assemblyQualifiedName=\"Microsoft.VisualStudio.TestPlatform.CommandLine.Internal.ConsoleLogger, vstest.console, Version=15.0.0.0, Culture=neutral, PublicKeyToken=b03f5f7f11d50a3a\" codeBase=\"C:\\Users\\guilherme.silva\\AppData\\Local\\Temp\\ddfjkhop.e3u\\.vstest\\tools\\net451\\vstest.console.exe\" enabled=\"True\" />\r\n    </Loggers>\r\n  </LoggerRunSettings>\r\n</RunSettings>",
  "TestCaseFilter": null
}
TpTrace Information: 0 : 18196, 5, 2020/10/14, 14:19:58.411, 5389599179328, testhost.dll, Discovery started.
TpTrace Information: 0 : 18196, 4, 2020/10/14, 14:19:58.416, 5389599224859, testhost.dll, AssemblyResolver.ctor: Creating AssemblyResolver with searchDirectories C:\Users\guilherme.silva\Documents\source\repos\poc-mutation-tests\tests\PoC.Mutation.Tests.Unit.Tests\bin\Debug\netcoreapp3.1
TpTrace Information: 0 : 18196, 4, 2020/10/14, 14:19:58.418, 5389599247406, testhost.dll, AssemblyResolver.AddSearchDirectories: Adding more searchDirectories C:\Users\guilherme.silva\Documents\source\repos\poc-mutation-tests\tests\PoC.Mutation.Tests.Unit.Tests\bin\Debug\netcoreapp3.1
TpTrace Information: 0 : 18196, 4, 2020/10/14, 14:19:58.421, 5389599282016, testhost.dll, AssemblyResolver.OnResolve: xunit.runner.visualstudio.dotnetcore.testadapter: Resolving assembly.
TpTrace Information: 0 : 18196, 4, 2020/10/14, 14:19:58.429, 5389599355716, testhost.dll, AssemblyResolver.OnResolve: Resolved assembly: xunit.runner.visualstudio.dotnetcore.testadapter, from path: C:\Users\guilherme.silva\Documents\source\repos\poc-mutation-tests\tests\PoC.Mutation.Tests.Unit.Tests\bin\Debug\netcoreapp3.1\xunit.runner.visualstudio.dotnetcore.testadapter.dll
TpTrace Information: 0 : 18196, 4, 2020/10/14, 14:19:58.436, 5389599426432, testhost.dll, AssemblyResolver.OnResolve: xunit.runner.utility.netcoreapp10: Resolving assembly.
TpTrace Information: 0 : 18196, 4, 2020/10/14, 14:19:58.447, 5389599538314, testhost.dll, AssemblyResolver.OnResolve: Resolved assembly: xunit.runner.utility.netcoreapp10, from path: C:\Users\guilherme.silva\Documents\source\repos\poc-mutation-tests\tests\PoC.Mutation.Tests.Unit.Tests\bin\Debug\netcoreapp3.1\xunit.runner.utility.netcoreapp10.dll
TpTrace Information: 0 : 18196, 4, 2020/10/14, 14:19:58.450, 5389599570607, testhost.dll, AssemblyResolver.OnResolve: System.ComponentModel.Primitives.resources: Resolving assembly.
TpTrace Information: 0 : 18196, 4, 2020/10/14, 14:19:58.450, 5389599572210, testhost.dll, AssemblyResolver.OnResolve: System.ComponentModel.Primitives.resources: Failed to load assembly.
TpTrace Information: 0 : 18196, 4, 2020/10/14, 14:19:58.451, 5389599575073, testhost.dll, AssemblyResolver.OnResolve: System.ComponentModel.Primitives.resources: Resolving assembly.
TpTrace Information: 0 : 18196, 4, 2020/10/14, 14:19:58.451, 5389599575574, testhost.dll, AssemblyResolver.OnResolve: System.ComponentModel.Primitives.resources: Resolved from cache.
TpTrace Information: 0 : 18196, 4, 2020/10/14, 14:19:58.452, 5389599586512, testhost.dll, AssemblyResolver.OnResolve: System.ComponentModel.Primitives.resources: Resolving assembly.
TpTrace Information: 0 : 18196, 4, 2020/10/14, 14:19:58.452, 5389599586945, testhost.dll, AssemblyResolver.OnResolve: System.ComponentModel.Primitives.resources: Resolved from cache.
TpTrace Information: 0 : 18196, 4, 2020/10/14, 14:19:58.457, 5389599641185, testhost.dll, TestPluginManager.CreateTestExtension: Attempting to load test extension: Xunit.Runner.VisualStudio.VsTestRunner
TpTrace Information: 0 : 18196, 4, 2020/10/14, 14:19:58.459, 5389599661412, testhost.dll, TestDiscoveryManager.DoDiscovery: Background test discovery started.
TpTrace Information: 0 : 18196, 4, 2020/10/14, 14:19:58.460, 5389599673068, testhost.dll, TestDiscoveryManager: Discovering tests from sources C:\Users\guilherme.silva\Documents\source\repos\poc-mutation-tests\tests\PoC.Mutation.Tests.Unit.Tests\bin\Debug\netcoreapp3.1\PoC.Mutation.Tests.Unit.Tests.dll
TpTrace Information: 0 : 18196, 4, 2020/10/14, 14:19:58.467, 5389599740516, testhost.dll, AssemblyResolver.AddSearchDirectories: Adding more searchDirectories C:\Users\guilherme.silva\Documents\source\repos\poc-mutation-tests\tests\PoC.Mutation.Tests.Unit.Tests\bin\Debug\netcoreapp3.1
TpTrace Information: 0 : 18196, 4, 2020/10/14, 14:19:58.467, 5389599741297, testhost.dll, AssemblyResolver.AddSearchDirectories: Adding more searchDirectories C:\Users\guilherme.silva\Documents\source\repos\poc-mutation-tests\tests\PoC.Mutation.Tests.Unit.Tests\bin\Debug\netcoreapp3.1
TpTrace Information: 0 : 18196, 4, 2020/10/14, 14:19:58.482, 5389599893802, testhost.dll, PEReaderHelper.GetAssemblyType: Determined assemblyType:'Managed' for source: 'C:\Users\guilherme.silva\Documents\source\repos\poc-mutation-tests\tests\PoC.Mutation.Tests.Unit.Tests\bin\Debug\netcoreapp3.1\PoC.Mutation.Tests.Unit.Tests.dll'
TpTrace Information: 0 : 18196, 4, 2020/10/14, 14:19:58.488, 5389599944667, testhost.dll, TestDiscoveryManager.RunMessage: calling TestRunMessage(Informational, [xUnit.net 00:00:00.00] xUnit.net VSTest Adapter v2.4.0 (64-bit .NET Core 3.1.8)) callback.
TpTrace Information: 0 : 18196, 4, 2020/10/14, 14:19:58.488, 5389599946678, testhost.dll, [xUnit.net 00:00:00.00] xUnit.net VSTest Adapter v2.4.0 (64-bit .NET Core 3.1.8)
TpTrace Information: 0 : 18196, 4, 2020/10/14, 14:19:58.860, 5389603672694, testhost.dll, AssemblyResolver.OnResolve: xunit.runner.reporters.netcoreapp10: Resolving assembly.
TpTrace Information: 0 : 18196, 4, 2020/10/14, 14:19:58.871, 5389603777128, testhost.dll, AssemblyResolver.OnResolve: Resolved assembly: xunit.runner.reporters.netcoreapp10, from path: C:\Users\guilherme.silva\Documents\source\repos\poc-mutation-tests\tests\PoC.Mutation.Tests.Unit.Tests\bin\Debug\netcoreapp3.1\xunit.runner.reporters.netcoreapp10.dll
TpTrace Information: 0 : 18196, 4, 2020/10/14, 14:19:58.902, 5389604087555, testhost.dll, TestDiscoveryManager.RunMessage: calling TestRunMessage(Informational, [xUnit.net 00:00:00.41]   Discovering: PoC.Mutation.Tests.Unit.Tests) callback.
TpTrace Information: 0 : 18196, 4, 2020/10/14, 14:19:58.902, 5389604089017, testhost.dll, [xUnit.net 00:00:00.41]   Discovering: PoC.Mutation.Tests.Unit.Tests
TpTrace Information: 0 : 18196, 12, 2020/10/14, 14:19:58.950, 5389604574172, testhost.dll, Test Cases found 
TpTrace Information: 0 : 18196, 12, 2020/10/14, 14:19:58.968, 5389604752133, testhost.dll, Test Cases found 
TpTrace Information: 0 : 18196, 12, 2020/10/14, 14:19:58.969, 5389604754744, testhost.dll, Test Cases found 
TpTrace Information: 0 : 18196, 12, 2020/10/14, 14:19:58.969, 5389604756041, testhost.dll, Test Cases found 
TpTrace Information: 0 : 18196, 4, 2020/10/14, 14:19:58.970, 5389604765473, testhost.dll, TestDiscoveryManager.RunMessage: calling TestRunMessage(Informational, [xUnit.net 00:00:00.48]   Discovered:  PoC.Mutation.Tests.Unit.Tests) callback.
TpTrace Information: 0 : 18196, 4, 2020/10/14, 14:19:58.970, 5389604766239, testhost.dll, [xUnit.net 00:00:00.48]   Discovered:  PoC.Mutation.Tests.Unit.Tests
TpTrace Information: 0 : 18196, 4, 2020/10/14, 14:19:58.974, 5389604811141, testhost.dll, Discover Finished.
TpTrace Information: 0 : 18196, 5, 2020/10/14, 14:19:58.986, 5389604928792, testhost.dll, TestRequestHandler.ProcessRequests: received message: (TestSession.Terminate) -> null
TpTrace Information: 0 : 18196, 5, 2020/10/14, 14:19:58.986, 5389604929496, testhost.dll, Session End message received from server. Closing the connection.
TpTrace Information: 0 : 18196, 5, 2020/10/14, 14:19:58.986, 5389604931651, testhost.dll, SocketClient.Stop: Stop communication from server endpoint: 127.0.0.1:064117
TpTrace Information: 0 : 18196, 5, 2020/10/14, 14:19:58.986, 5389604932379, testhost.dll, SocketClient: Stop: Cancellation requested. Stopping message loop.
TpTrace Information: 0 : 18196, 1, 2020/10/14, 14:19:58.986, 5389604932484, testhost.dll, SocketClient.Stop: Stop communication from server endpoint: 127.0.0.1:064117
TpTrace Information: 0 : 18196, 1, 2020/10/14, 14:19:58.986, 5389604933105, testhost.dll, SocketClient: Stop: Cancellation requested. Stopping message loop.
TpTrace Information: 0 : 18196, 5, 2020/10/14, 14:19:58.986, 5389604934168, testhost.dll, Closing the connection !
TpTrace Information: 0 : 18196, 1, 2020/10/14, 14:19:58.986, 5389604934410, testhost.dll, Testhost process exiting.
TpTrace Information: 0 : 18196, 5, 2020/10/14, 14:19:58.987, 5389604935847, testhost.dll, SocketClient.PrivateStop: Stop communication from server endpoint: 127.0.0.1:064117, error:
